<?xml version="1.0" encoding="UTF-8" standalone="no"?>
<!-- Created with Inkscape (http://www.inkscape.org/) -->

<svg
   xmlns:osb="http://www.openswatchbook.org/uri/2009/osb"
   xmlns:dc="http://purl.org/dc/elements/1.1/"
   xmlns:cc="http://creativecommons.org/ns#"
   xmlns:rdf="http://www.w3.org/1999/02/22-rdf-syntax-ns#"
   xmlns:svg="http://www.w3.org/2000/svg"
   xmlns="http://www.w3.org/2000/svg"
   xmlns:xlink="http://www.w3.org/1999/xlink"
   xmlns:sodipodi="http://sodipodi.sourceforge.net/DTD/sodipodi-0.dtd"
   xmlns:inkscape="http://www.inkscape.org/namespaces/inkscape"
   width="210mm"
   height="297mm"
   id="svg3271"
   version="1.1"
   inkscape:version="0.48.4 r9939"
   sodipodi:docname="autres_flacons.svg">
  <script
     xlink:href=""
     id="script7290" />
  <defs
     id="defs3273">
    <linearGradient
       id="linearGradient5777">
      <stop
         style="stop-color:#ff1a23;stop-opacity:1;"
         offset="0"
         id="stop5779" />
      <stop
         style="stop-color:#ff1a23;stop-opacity:0.46762589;"
         offset="1"
         id="stop5781" />
    </linearGradient>
    <linearGradient
       id="linearGradient5763"
       osb:paint="solid">
      <stop
         style="stop-color:#ff0000;stop-opacity:1;"
         offset="0"
         id="stop5765" />
    </linearGradient>
    <linearGradient
       id="linearGradient4242">
      <stop
         style="stop-color:#091a23;stop-opacity:0.39568347;"
         offset="0"
         id="stop4244" />
      <stop
         style="stop-color:#000000;stop-opacity:0;"
         offset="1"
         id="stop4246" />
    </linearGradient>
    <linearGradient
       inkscape:collect="always"
       xlink:href="#linearGradient4242"
       id="linearGradient5861"
       gradientUnits="userSpaceOnUse"
       gradientTransform="matrix(0.78471602,0,0,0.84077201,19.085366,-7.861508)"
       x1="36.416256"
       y1="122.53972"
       x2="121.16754"
       y2="91.224991" />
    <linearGradient
       inkscape:collect="always"
       xlink:href="#linearGradient4242"
       id="linearGradient5933"
       gradientUnits="userSpaceOnUse"
       gradientTransform="matrix(0.59975668,0,0,0.64260015,247.6443,2.6512503)"
       x1="36.416256"
       y1="122.53972"
       x2="121.16754"
       y2="91.224991" />
    <linearGradient
       inkscape:collect="always"
       xlink:href="#linearGradient5766"
       id="linearGradient3788"
       gradientUnits="userSpaceOnUse"
       gradientTransform="matrix(0.9767208,0,0,0.99544647,-285.34614,-432.2634)"
       x1="316.11188"
       y1="555.92572"
       x2="489.68332"
       y2="555.92572" />
    <linearGradient
       id="linearGradient5766">
      <stop
         id="stop5768"
         style="stop-color:#565656;stop-opacity:0.57553959"
         offset="0" />
      <stop
         id="stop5770"
         style="stop-color:#7f7f7f;stop-opacity:0.33812949"
         offset="1" />
    </linearGradient>
    <linearGradient
       y2="555.92572"
       x2="489.68332"
       y1="555.92572"
       x1="316.11188"
       gradientTransform="matrix(0.09889736,0.08439044,-0.08600837,0.10079342,499.94604,-57.336517)"
       gradientUnits="userSpaceOnUse"
       id="linearGradient3028"
       xlink:href="#linearGradient5766"
       inkscape:collect="always" />
    <linearGradient
       inkscape:collect="always"
       xlink:href="#linearGradient5970"
       id="linearGradient6322"
       gradientUnits="userSpaceOnUse"
       x1="-1009.7177"
       y1="3386.782"
       x2="-237.95033"
       y2="3386.782"
       gradientTransform="translate(-681.002,-1675.2199)" />
    <linearGradient
       id="linearGradient5970">
      <stop
         style="stop-color:#c0c0c0;stop-opacity:1;"
         offset="0"
         id="stop5972" />
      <stop
         id="stop5980"
         offset="0.5"
         style="stop-color:#c0c0c0;stop-opacity:0.27200001;" />
      <stop
         id="stop5978"
         offset="1"
         style="stop-color:#c0c0c0;stop-opacity:1;" />
    </linearGradient>
    <linearGradient
       id="linearGradient4242-1">
      <stop
         style="stop-color:#091a23;stop-opacity:0.39568347;"
         offset="0"
         id="stop4244-0" />
      <stop
         style="stop-color:#000000;stop-opacity:0;"
         offset="1"
         id="stop4246-1" />
    </linearGradient>
    <linearGradient
       inkscape:collect="always"
       xlink:href="#linearGradient5766-9"
       id="linearGradient3788-1"
       gradientUnits="userSpaceOnUse"
       gradientTransform="matrix(0.9767208,0,0,0.99544647,-285.34614,-432.2634)"
       x1="316.11188"
       y1="555.92572"
       x2="489.68332"
       y2="555.92572" />
    <linearGradient
       id="linearGradient5766-9">
      <stop
         id="stop5768-4"
         style="stop-color:#565656;stop-opacity:0.57553959"
         offset="0" />
      <stop
         id="stop5770-4"
         style="stop-color:#7f7f7f;stop-opacity:0.33812949"
         offset="1" />
    </linearGradient>
    <linearGradient
       inkscape:collect="always"
       xlink:href="#linearGradient19735"
       id="linearGradient19847"
       gradientUnits="userSpaceOnUse"
       gradientTransform="matrix(0.8660254,-0.5,0.5,0.8660254,-156.90571,799.40442)"
       x1="375.09055"
       y1="255.11809"
       x2="400.60629"
       y2="255.11809" />
    <linearGradient
       id="linearGradient19735">
      <stop
         style="stop-color:#414c97;stop-opacity:0.15294118;"
         offset="0"
         id="stop19737" />
      <stop
         style="stop-color:#3b68b5;stop-opacity:1;"
         offset="1"
         id="stop19739" />
    </linearGradient>
    <linearGradient
       inkscape:collect="always"
       xlink:href="#linearGradient19735"
       id="linearGradient19833"
       gradientUnits="userSpaceOnUse"
       gradientTransform="matrix(0.8660254,-0.5,0.5,0.8660254,-178.16556,762.58129)"
       x1="375.09055"
       y1="255.11809"
       x2="400.60629"
       y2="255.11809" />
    <linearGradient
       id="linearGradient3063">
      <stop
         style="stop-color:#414c97;stop-opacity:0.15294118;"
         offset="0"
         id="stop3065" />
      <stop
         style="stop-color:#3b68b5;stop-opacity:1;"
         offset="1"
         id="stop3067" />
    </linearGradient>
    <linearGradient
       inkscape:collect="always"
       xlink:href="#linearGradient19735"
       id="linearGradient19831"
       gradientUnits="userSpaceOnUse"
       gradientTransform="matrix(0.8660254,-0.5,0.5,0.8660254,-162.22067,790.19864)"
       x1="375.09055"
       y1="255.11809"
       x2="400.60629"
       y2="255.11809" />
    <linearGradient
       id="linearGradient3070">
      <stop
         style="stop-color:#414c97;stop-opacity:0.15294118;"
         offset="0"
         id="stop3072" />
      <stop
         style="stop-color:#3b68b5;stop-opacity:1;"
         offset="1"
         id="stop3074" />
    </linearGradient>
    <linearGradient
       inkscape:collect="always"
       xlink:href="#linearGradient19735"
       id="linearGradient19829"
       gradientUnits="userSpaceOnUse"
       gradientTransform="matrix(0.8660254,-0.5,0.5,0.8660254,-172.8506,771.78707)"
       x1="375.09055"
       y1="255.11809"
       x2="400.60629"
       y2="255.11809" />
    <linearGradient
       id="linearGradient3077">
      <stop
         style="stop-color:#414c97;stop-opacity:0.15294118;"
         offset="0"
         id="stop3079" />
      <stop
         style="stop-color:#3b68b5;stop-opacity:1;"
         offset="1"
         id="stop3081" />
    </linearGradient>
    <linearGradient
       inkscape:collect="always"
       xlink:href="#linearGradient19735"
       id="linearGradient19827"
       gradientUnits="userSpaceOnUse"
       gradientTransform="matrix(0.8660254,-0.5,0.5,0.8660254,-167.53563,780.99286)"
       x1="375.09055"
       y1="255.11809"
       x2="400.60629"
       y2="255.11809" />
    <linearGradient
       id="linearGradient3084">
      <stop
         style="stop-color:#414c97;stop-opacity:0.15294118;"
         offset="0"
         id="stop3086" />
      <stop
         style="stop-color:#3b68b5;stop-opacity:1;"
         offset="1"
         id="stop3088" />
    </linearGradient>
    <linearGradient
       inkscape:collect="always"
       xlink:href="#linearGradient19735"
       id="linearGradient19825"
       gradientUnits="userSpaceOnUse"
       gradientTransform="matrix(0.8660254,-0.5,0.5,0.8660254,-183.48052,753.37551)"
       x1="375.09055"
       y1="255.11809"
       x2="400.60629"
       y2="255.11809" />
    <linearGradient
       id="linearGradient3091">
      <stop
         style="stop-color:#414c97;stop-opacity:0.15294118;"
         offset="0"
         id="stop3093" />
      <stop
         style="stop-color:#3b68b5;stop-opacity:1;"
         offset="1"
         id="stop3095" />
    </linearGradient>
    <linearGradient
       inkscape:collect="always"
       xlink:href="#linearGradient19735"
       id="linearGradient19823"
       gradientUnits="userSpaceOnUse"
       gradientTransform="matrix(0.8660254,-0.5,0.5,0.8660254,-188.79547,744.16973)"
       x1="375.09055"
       y1="255.11809"
       x2="400.60629"
       y2="255.11809" />
    <linearGradient
       id="linearGradient3098">
      <stop
         style="stop-color:#414c97;stop-opacity:0.15294118;"
         offset="0"
         id="stop3100" />
      <stop
         style="stop-color:#3b68b5;stop-opacity:1;"
         offset="1"
         id="stop3102" />
    </linearGradient>
    <linearGradient
       inkscape:collect="always"
       xlink:href="#linearGradient19735"
       id="linearGradient19809"
       gradientUnits="userSpaceOnUse"
       gradientTransform="matrix(0.8660254,-0.5,0.5,0.8660254,-210.05533,707.3466)"
       x1="375.09055"
       y1="255.11809"
       x2="400.60629"
       y2="255.11809" />
    <linearGradient
       id="linearGradient3105">
      <stop
         style="stop-color:#414c97;stop-opacity:0.15294118;"
         offset="0"
         id="stop3107" />
      <stop
         style="stop-color:#3b68b5;stop-opacity:1;"
         offset="1"
         id="stop3109" />
    </linearGradient>
    <linearGradient
       inkscape:collect="always"
       xlink:href="#linearGradient19735"
       id="linearGradient19807"
       gradientUnits="userSpaceOnUse"
       gradientTransform="matrix(0.8660254,-0.5,0.5,0.8660254,-194.11044,734.96395)"
       x1="375.09055"
       y1="255.11809"
       x2="400.60629"
       y2="255.11809" />
    <linearGradient
       id="linearGradient3112">
      <stop
         style="stop-color:#414c97;stop-opacity:0.15294118;"
         offset="0"
         id="stop3114" />
      <stop
         style="stop-color:#3b68b5;stop-opacity:1;"
         offset="1"
         id="stop3116" />
    </linearGradient>
    <linearGradient
       inkscape:collect="always"
       xlink:href="#linearGradient19735"
       id="linearGradient19805"
       gradientUnits="userSpaceOnUse"
       gradientTransform="matrix(0.8660254,-0.5,0.5,0.8660254,-204.74037,716.55238)"
       x1="375.09055"
       y1="255.11809"
       x2="400.60629"
       y2="255.11809" />
    <linearGradient
       id="linearGradient3119">
      <stop
         style="stop-color:#414c97;stop-opacity:0.15294118;"
         offset="0"
         id="stop3121" />
      <stop
         style="stop-color:#3b68b5;stop-opacity:1;"
         offset="1"
         id="stop3123" />
    </linearGradient>
    <linearGradient
       inkscape:collect="always"
       xlink:href="#linearGradient19735"
       id="linearGradient19803"
       gradientUnits="userSpaceOnUse"
       gradientTransform="matrix(0.8660254,-0.5,0.5,0.8660254,-199.4254,725.75817)"
       x1="375.09055"
       y1="255.11809"
       x2="400.60629"
       y2="255.11809" />
    <linearGradient
       id="linearGradient3126">
      <stop
         style="stop-color:#414c97;stop-opacity:0.15294118;"
         offset="0"
         id="stop3128" />
      <stop
         style="stop-color:#3b68b5;stop-opacity:1;"
         offset="1"
         id="stop3130" />
    </linearGradient>
    <linearGradient
       inkscape:collect="always"
       xlink:href="#linearGradient19735"
       id="linearGradient19801"
       gradientUnits="userSpaceOnUse"
       gradientTransform="matrix(0.8660254,-0.5,0.5,0.8660254,-215.37028,698.14082)"
       x1="375.09055"
       y1="255.11809"
       x2="400.60629"
       y2="255.11809" />
    <linearGradient
       id="linearGradient3133">
      <stop
         style="stop-color:#414c97;stop-opacity:0.15294118;"
         offset="0"
         id="stop3135" />
      <stop
         style="stop-color:#3b68b5;stop-opacity:1;"
         offset="1"
         id="stop3137" />
    </linearGradient>
    <linearGradient
       inkscape:collect="always"
       xlink:href="#linearGradient19735"
       id="linearGradient19799"
       gradientUnits="userSpaceOnUse"
       gradientTransform="matrix(0.8660254,-0.5,0.5,0.8660254,-220.68524,688.93503)"
       x1="375.09055"
       y1="255.11809"
       x2="400.60629"
       y2="255.11809" />
    <linearGradient
       id="linearGradient3140">
      <stop
         style="stop-color:#414c97;stop-opacity:0.15294118;"
         offset="0"
         id="stop3142" />
      <stop
         style="stop-color:#3b68b5;stop-opacity:1;"
         offset="1"
         id="stop3144" />
    </linearGradient>
    <linearGradient
       inkscape:collect="always"
       xlink:href="#linearGradient19735"
       id="linearGradient19785"
       gradientUnits="userSpaceOnUse"
       gradientTransform="matrix(0.8660254,-0.5,0.5,0.8660254,-241.94509,652.11191)"
       x1="375.09055"
       y1="255.11809"
       x2="400.60629"
       y2="255.11809" />
    <linearGradient
       id="linearGradient3147">
      <stop
         style="stop-color:#414c97;stop-opacity:0.15294118;"
         offset="0"
         id="stop3149" />
      <stop
         style="stop-color:#3b68b5;stop-opacity:1;"
         offset="1"
         id="stop3151" />
    </linearGradient>
    <linearGradient
       inkscape:collect="always"
       xlink:href="#linearGradient19735"
       id="linearGradient19783"
       gradientUnits="userSpaceOnUse"
       gradientTransform="matrix(0.8660254,-0.5,0.5,0.8660254,-226.0002,679.72925)"
       x1="375.09055"
       y1="255.11809"
       x2="400.60629"
       y2="255.11809" />
    <linearGradient
       id="linearGradient3154">
      <stop
         style="stop-color:#414c97;stop-opacity:0.15294118;"
         offset="0"
         id="stop3156" />
      <stop
         style="stop-color:#3b68b5;stop-opacity:1;"
         offset="1"
         id="stop3158" />
    </linearGradient>
    <linearGradient
       inkscape:collect="always"
       xlink:href="#linearGradient19735"
       id="linearGradient19781"
       gradientUnits="userSpaceOnUse"
       gradientTransform="matrix(0.8660254,-0.5,0.5,0.8660254,-236.63013,661.31769)"
       x1="375.09055"
       y1="255.11809"
       x2="400.60629"
       y2="255.11809" />
    <linearGradient
       id="linearGradient3161">
      <stop
         style="stop-color:#414c97;stop-opacity:0.15294118;"
         offset="0"
         id="stop3163" />
      <stop
         style="stop-color:#3b68b5;stop-opacity:1;"
         offset="1"
         id="stop3165" />
    </linearGradient>
    <linearGradient
       inkscape:collect="always"
       xlink:href="#linearGradient19735"
       id="linearGradient19779"
       gradientUnits="userSpaceOnUse"
       gradientTransform="matrix(0.8660254,-0.5,0.5,0.8660254,-231.31516,670.52347)"
       x1="375.09055"
       y1="255.11809"
       x2="400.60629"
       y2="255.11809" />
    <linearGradient
       id="linearGradient3168">
      <stop
         style="stop-color:#414c97;stop-opacity:0.15294118;"
         offset="0"
         id="stop3170" />
      <stop
         style="stop-color:#3b68b5;stop-opacity:1;"
         offset="1"
         id="stop3172" />
    </linearGradient>
    <linearGradient
       inkscape:collect="always"
       xlink:href="#linearGradient19735"
       id="linearGradient19777"
       gradientUnits="userSpaceOnUse"
       gradientTransform="matrix(0.8660254,-0.5,0.5,0.8660254,-247.26005,642.90613)"
       x1="375.09055"
       y1="255.11809"
       x2="400.60629"
       y2="255.11809" />
    <linearGradient
       id="linearGradient3175">
      <stop
         style="stop-color:#414c97;stop-opacity:0.15294118;"
         offset="0"
         id="stop3177" />
      <stop
         style="stop-color:#3b68b5;stop-opacity:1;"
         offset="1"
         id="stop3179" />
    </linearGradient>
    <linearGradient
       inkscape:collect="always"
       xlink:href="#linearGradient19735"
       id="linearGradient19775"
       gradientUnits="userSpaceOnUse"
       gradientTransform="matrix(0.8660254,-0.5,0.5,0.8660254,-252.575,633.70035)"
       x1="375.09055"
       y1="255.11809"
       x2="400.60629"
       y2="255.11809" />
    <linearGradient
       id="linearGradient3182">
      <stop
         style="stop-color:#414c97;stop-opacity:0.15294118;"
         offset="0"
         id="stop3184" />
      <stop
         style="stop-color:#3b68b5;stop-opacity:1;"
         offset="1"
         id="stop3186" />
    </linearGradient>
    <linearGradient
       inkscape:collect="always"
       xlink:href="#linearGradient19735"
       id="linearGradient19761"
       gradientUnits="userSpaceOnUse"
       gradientTransform="matrix(0.8660254,-0.5,0.5,0.8660254,-273.83485,596.87722)"
       x1="375.09055"
       y1="255.11809"
       x2="400.60629"
       y2="255.11809" />
    <linearGradient
       id="linearGradient3189">
      <stop
         style="stop-color:#414c97;stop-opacity:0.15294118;"
         offset="0"
         id="stop3191" />
      <stop
         style="stop-color:#3b68b5;stop-opacity:1;"
         offset="1"
         id="stop3193" />
    </linearGradient>
    <linearGradient
       inkscape:collect="always"
       xlink:href="#linearGradient19735"
       id="linearGradient19759"
       gradientUnits="userSpaceOnUse"
       gradientTransform="matrix(0.8660254,-0.5,0.5,0.8660254,-257.88996,624.49457)"
       x1="375.09055"
       y1="255.11809"
       x2="400.60629"
       y2="255.11809" />
    <linearGradient
       id="linearGradient3196">
      <stop
         style="stop-color:#414c97;stop-opacity:0.15294118;"
         offset="0"
         id="stop3198" />
      <stop
         style="stop-color:#3b68b5;stop-opacity:1;"
         offset="1"
         id="stop3200" />
    </linearGradient>
    <linearGradient
       inkscape:collect="always"
       xlink:href="#linearGradient19735"
       id="linearGradient19753"
       gradientUnits="userSpaceOnUse"
       gradientTransform="matrix(0.8660254,-0.5,0.5,0.8660254,-268.51989,606.083)"
       x1="375.09055"
       y1="255.11809"
       x2="400.60629"
       y2="255.11809" />
    <linearGradient
       id="linearGradient3203">
      <stop
         style="stop-color:#414c97;stop-opacity:0.15294118;"
         offset="0"
         id="stop3205" />
      <stop
         style="stop-color:#3b68b5;stop-opacity:1;"
         offset="1"
         id="stop3207" />
    </linearGradient>
    <linearGradient
       inkscape:collect="always"
       xlink:href="#linearGradient19735"
       id="linearGradient19751"
       gradientUnits="userSpaceOnUse"
       gradientTransform="matrix(0.8660254,-0.5,0.5,0.8660254,-263.20492,615.28879)"
       x1="375.09055"
       y1="255.11809"
       x2="400.60629"
       y2="255.11809" />
    <linearGradient
       id="linearGradient3210">
      <stop
         style="stop-color:#414c97;stop-opacity:0.15294118;"
         offset="0"
         id="stop3212" />
      <stop
         style="stop-color:#3b68b5;stop-opacity:1;"
         offset="1"
         id="stop3214" />
    </linearGradient>
    <linearGradient
       inkscape:collect="always"
       xlink:href="#linearGradient19735"
       id="linearGradient19745"
       gradientUnits="userSpaceOnUse"
       gradientTransform="matrix(0.8660254,-0.5,0.5,0.8660254,-279.1498,587.67144)"
       x1="375.09055"
       y1="255.11809"
       x2="400.60629"
       y2="255.11809" />
    <linearGradient
       id="linearGradient3217">
      <stop
         style="stop-color:#414c97;stop-opacity:0.15294118;"
         offset="0"
         id="stop3219" />
      <stop
         style="stop-color:#3b68b5;stop-opacity:1;"
         offset="1"
         id="stop3221" />
    </linearGradient>
    <linearGradient
       inkscape:collect="always"
       xlink:href="#linearGradient19735"
       id="linearGradient19741"
       x1="375.09055"
       y1="255.11809"
       x2="400.60629"
       y2="255.11809"
       gradientUnits="userSpaceOnUse"
       gradientTransform="matrix(0.8660254,-0.5,0.5,0.8660254,-284.46476,578.46566)" />
    <linearGradient
       id="linearGradient3224">
      <stop
         style="stop-color:#414c97;stop-opacity:0.15294118;"
         offset="0"
         id="stop3226" />
      <stop
         style="stop-color:#3b68b5;stop-opacity:1;"
         offset="1"
         id="stop3228" />
    </linearGradient>
    <linearGradient
       inkscape:collect="always"
       xlink:href="#linearGradient12924"
       id="linearGradient12930"
       x1="318.39764"
       y1="444.68503"
       x2="425.69684"
       y2="444.68503"
       gradientUnits="userSpaceOnUse"
       gradientTransform="matrix(0.8660254,-0.5,0.5,0.8660254,-284.46475,578.46566)" />
    <linearGradient
       id="linearGradient12924">
      <stop
         style="stop-color:#abf3fe;stop-opacity:0.83823532;"
         offset="0"
         id="stop12926" />
      <stop
         id="stop12932"
         offset="0.41428572"
         style="stop-color:#8bfbff;stop-opacity:0.59558821;" />
      <stop
         style="stop-color:#00ffff;stop-opacity:1;"
         offset="1"
         id="stop12928" />
    </linearGradient>
    <linearGradient
       inkscape:collect="always"
       xlink:href="#linearGradient15843"
       id="linearGradient15849"
       x1="332.71655"
       y1="201.96848"
       x2="411.37796"
       y2="201.96848"
       gradientUnits="userSpaceOnUse"
       gradientTransform="matrix(0.8660254,-0.5,0.5,0.8660254,-284.46475,578.46566)" />
    <linearGradient
       id="linearGradient15843">
      <stop
         style="stop-color:#f8f8f8;stop-opacity:1;"
         offset="0"
         id="stop15845" />
      <stop
         style="stop-color:#969696;stop-opacity:1;"
         offset="1"
         id="stop15847" />
    </linearGradient>
    <linearGradient
       inkscape:collect="always"
       xlink:href="#linearGradient15843"
       id="linearGradient7038"
       gradientUnits="userSpaceOnUse"
       gradientTransform="matrix(0.8660254,-0.5,0.5,0.8660254,-284.46475,578.46566)"
       x1="332.71655"
       y1="201.96848"
       x2="411.37796"
       y2="201.96848" />
    <linearGradient
       inkscape:collect="always"
       xlink:href="#linearGradient12924"
       id="linearGradient7040"
       gradientUnits="userSpaceOnUse"
       gradientTransform="matrix(0.8660254,-0.5,0.5,0.8660254,-284.46475,578.46566)"
       x1="318.39764"
       y1="444.68503"
       x2="425.69684"
       y2="444.68503" />
    <linearGradient
       inkscape:collect="always"
       xlink:href="#linearGradient19735"
       id="linearGradient7042"
       gradientUnits="userSpaceOnUse"
       gradientTransform="matrix(0.8660254,-0.5,0.5,0.8660254,-284.46476,578.46566)"
       x1="375.09055"
       y1="255.11809"
       x2="400.60629"
       y2="255.11809" />
    <linearGradient
       inkscape:collect="always"
       xlink:href="#linearGradient19735"
       id="linearGradient7044"
       gradientUnits="userSpaceOnUse"
       gradientTransform="matrix(0.8660254,-0.5,0.5,0.8660254,-279.1498,587.67144)"
       x1="375.09055"
       y1="255.11809"
       x2="400.60629"
       y2="255.11809" />
    <linearGradient
       inkscape:collect="always"
       xlink:href="#linearGradient19735"
       id="linearGradient7046"
       gradientUnits="userSpaceOnUse"
       gradientTransform="matrix(0.8660254,-0.5,0.5,0.8660254,-263.20492,615.28879)"
       x1="375.09055"
       y1="255.11809"
       x2="400.60629"
       y2="255.11809" />
    <linearGradient
       inkscape:collect="always"
       xlink:href="#linearGradient19735"
       id="linearGradient7048"
       gradientUnits="userSpaceOnUse"
       gradientTransform="matrix(0.8660254,-0.5,0.5,0.8660254,-268.51989,606.083)"
       x1="375.09055"
       y1="255.11809"
       x2="400.60629"
       y2="255.11809" />
    <linearGradient
       inkscape:collect="always"
       xlink:href="#linearGradient19735"
       id="linearGradient7050"
       gradientUnits="userSpaceOnUse"
       gradientTransform="matrix(0.8660254,-0.5,0.5,0.8660254,-257.88996,624.49457)"
       x1="375.09055"
       y1="255.11809"
       x2="400.60629"
       y2="255.11809" />
    <linearGradient
       inkscape:collect="always"
       xlink:href="#linearGradient19735"
       id="linearGradient7052"
       gradientUnits="userSpaceOnUse"
       gradientTransform="matrix(0.8660254,-0.5,0.5,0.8660254,-273.83485,596.87722)"
       x1="375.09055"
       y1="255.11809"
       x2="400.60629"
       y2="255.11809" />
    <linearGradient
       inkscape:collect="always"
       xlink:href="#linearGradient19735"
       id="linearGradient7054"
       gradientUnits="userSpaceOnUse"
       gradientTransform="matrix(0.8660254,-0.5,0.5,0.8660254,-252.575,633.70035)"
       x1="375.09055"
       y1="255.11809"
       x2="400.60629"
       y2="255.11809" />
    <linearGradient
       inkscape:collect="always"
       xlink:href="#linearGradient19735"
       id="linearGradient7056"
       gradientUnits="userSpaceOnUse"
       gradientTransform="matrix(0.8660254,-0.5,0.5,0.8660254,-247.26005,642.90613)"
       x1="375.09055"
       y1="255.11809"
       x2="400.60629"
       y2="255.11809" />
    <linearGradient
       inkscape:collect="always"
       xlink:href="#linearGradient19735"
       id="linearGradient7058"
       gradientUnits="userSpaceOnUse"
       gradientTransform="matrix(0.8660254,-0.5,0.5,0.8660254,-231.31516,670.52347)"
       x1="375.09055"
       y1="255.11809"
       x2="400.60629"
       y2="255.11809" />
    <linearGradient
       inkscape:collect="always"
       xlink:href="#linearGradient19735"
       id="linearGradient7060"
       gradientUnits="userSpaceOnUse"
       gradientTransform="matrix(0.8660254,-0.5,0.5,0.8660254,-236.63013,661.31769)"
       x1="375.09055"
       y1="255.11809"
       x2="400.60629"
       y2="255.11809" />
    <linearGradient
       inkscape:collect="always"
       xlink:href="#linearGradient19735"
       id="linearGradient7062"
       gradientUnits="userSpaceOnUse"
       gradientTransform="matrix(0.8660254,-0.5,0.5,0.8660254,-226.0002,679.72925)"
       x1="375.09055"
       y1="255.11809"
       x2="400.60629"
       y2="255.11809" />
    <linearGradient
       inkscape:collect="always"
       xlink:href="#linearGradient19735"
       id="linearGradient7064"
       gradientUnits="userSpaceOnUse"
       gradientTransform="matrix(0.8660254,-0.5,0.5,0.8660254,-241.94509,652.11191)"
       x1="375.09055"
       y1="255.11809"
       x2="400.60629"
       y2="255.11809" />
    <linearGradient
       inkscape:collect="always"
       xlink:href="#linearGradient19735"
       id="linearGradient7066"
       gradientUnits="userSpaceOnUse"
       gradientTransform="matrix(0.8660254,-0.5,0.5,0.8660254,-220.68524,688.93503)"
       x1="375.09055"
       y1="255.11809"
       x2="400.60629"
       y2="255.11809" />
    <linearGradient
       inkscape:collect="always"
       xlink:href="#linearGradient19735"
       id="linearGradient7068"
       gradientUnits="userSpaceOnUse"
       gradientTransform="matrix(0.8660254,-0.5,0.5,0.8660254,-215.37028,698.14082)"
       x1="375.09055"
       y1="255.11809"
       x2="400.60629"
       y2="255.11809" />
    <linearGradient
       inkscape:collect="always"
       xlink:href="#linearGradient19735"
       id="linearGradient7070"
       gradientUnits="userSpaceOnUse"
       gradientTransform="matrix(0.8660254,-0.5,0.5,0.8660254,-199.4254,725.75817)"
       x1="375.09055"
       y1="255.11809"
       x2="400.60629"
       y2="255.11809" />
    <linearGradient
       inkscape:collect="always"
       xlink:href="#linearGradient19735"
       id="linearGradient7072"
       gradientUnits="userSpaceOnUse"
       gradientTransform="matrix(0.8660254,-0.5,0.5,0.8660254,-204.74037,716.55238)"
       x1="375.09055"
       y1="255.11809"
       x2="400.60629"
       y2="255.11809" />
    <linearGradient
       inkscape:collect="always"
       xlink:href="#linearGradient19735"
       id="linearGradient7074"
       gradientUnits="userSpaceOnUse"
       gradientTransform="matrix(0.8660254,-0.5,0.5,0.8660254,-194.11044,734.96395)"
       x1="375.09055"
       y1="255.11809"
       x2="400.60629"
       y2="255.11809" />
    <linearGradient
       inkscape:collect="always"
       xlink:href="#linearGradient19735"
       id="linearGradient7076"
       gradientUnits="userSpaceOnUse"
       gradientTransform="matrix(0.8660254,-0.5,0.5,0.8660254,-210.05533,707.3466)"
       x1="375.09055"
       y1="255.11809"
       x2="400.60629"
       y2="255.11809" />
    <linearGradient
       inkscape:collect="always"
       xlink:href="#linearGradient19735"
       id="linearGradient7078"
       gradientUnits="userSpaceOnUse"
       gradientTransform="matrix(0.8660254,-0.5,0.5,0.8660254,-188.79547,744.16973)"
       x1="375.09055"
       y1="255.11809"
       x2="400.60629"
       y2="255.11809" />
    <linearGradient
       inkscape:collect="always"
       xlink:href="#linearGradient19735"
       id="linearGradient7080"
       gradientUnits="userSpaceOnUse"
       gradientTransform="matrix(0.8660254,-0.5,0.5,0.8660254,-183.48052,753.37551)"
       x1="375.09055"
       y1="255.11809"
       x2="400.60629"
       y2="255.11809" />
    <linearGradient
       inkscape:collect="always"
       xlink:href="#linearGradient19735"
       id="linearGradient7082"
       gradientUnits="userSpaceOnUse"
       gradientTransform="matrix(0.8660254,-0.5,0.5,0.8660254,-167.53563,780.99286)"
       x1="375.09055"
       y1="255.11809"
       x2="400.60629"
       y2="255.11809" />
    <linearGradient
       inkscape:collect="always"
       xlink:href="#linearGradient19735"
       id="linearGradient7084"
       gradientUnits="userSpaceOnUse"
       gradientTransform="matrix(0.8660254,-0.5,0.5,0.8660254,-172.8506,771.78707)"
       x1="375.09055"
       y1="255.11809"
       x2="400.60629"
       y2="255.11809" />
    <linearGradient
       inkscape:collect="always"
       xlink:href="#linearGradient19735"
       id="linearGradient7086"
       gradientUnits="userSpaceOnUse"
       gradientTransform="matrix(0.8660254,-0.5,0.5,0.8660254,-162.22067,790.19864)"
       x1="375.09055"
       y1="255.11809"
       x2="400.60629"
       y2="255.11809" />
    <linearGradient
       inkscape:collect="always"
       xlink:href="#linearGradient19735"
       id="linearGradient7088"
       gradientUnits="userSpaceOnUse"
       gradientTransform="matrix(0.8660254,-0.5,0.5,0.8660254,-178.16556,762.58129)"
       x1="375.09055"
       y1="255.11809"
       x2="400.60629"
       y2="255.11809" />
    <linearGradient
       inkscape:collect="always"
       xlink:href="#linearGradient19735"
       id="linearGradient7090"
       gradientUnits="userSpaceOnUse"
       gradientTransform="matrix(0.8660254,-0.5,0.5,0.8660254,-156.90571,799.40442)"
       x1="375.09055"
       y1="255.11809"
       x2="400.60629"
       y2="255.11809" />
    <linearGradient
       inkscape:collect="always"
       xlink:href="#linearGradient19735"
       id="linearGradient7093"
       gradientUnits="userSpaceOnUse"
       gradientTransform="matrix(0.33569917,-0.19381601,0.19381601,0.33569917,386.99477,671.18535)"
       x1="375.09055"
       y1="255.11809"
       x2="400.60629"
       y2="255.11809" />
    <linearGradient
       inkscape:collect="always"
       xlink:href="#linearGradient19735"
       id="linearGradient7096"
       gradientUnits="userSpaceOnUse"
       gradientTransform="matrix(0.33569917,-0.19381601,0.19381601,0.33569917,378.75378,656.91153)"
       x1="375.09055"
       y1="255.11809"
       x2="400.60629"
       y2="255.11809" />
    <linearGradient
       inkscape:collect="always"
       xlink:href="#linearGradient19735"
       id="linearGradient7099"
       gradientUnits="userSpaceOnUse"
       gradientTransform="matrix(0.33569917,-0.19381601,0.19381601,0.33569917,384.93453,667.6169)"
       x1="375.09055"
       y1="255.11809"
       x2="400.60629"
       y2="255.11809" />
    <linearGradient
       inkscape:collect="always"
       xlink:href="#linearGradient19735"
       id="linearGradient7102"
       gradientUnits="userSpaceOnUse"
       gradientTransform="matrix(0.33569917,-0.19381601,0.19381601,0.33569917,380.81402,660.47998)"
       x1="375.09055"
       y1="255.11809"
       x2="400.60629"
       y2="255.11809" />
    <linearGradient
       inkscape:collect="always"
       xlink:href="#linearGradient19735"
       id="linearGradient7105"
       gradientUnits="userSpaceOnUse"
       gradientTransform="matrix(0.33569917,-0.19381601,0.19381601,0.33569917,382.87428,664.04844)"
       x1="375.09055"
       y1="255.11809"
       x2="400.60629"
       y2="255.11809" />
    <linearGradient
       inkscape:collect="always"
       xlink:href="#linearGradient19735"
       id="linearGradient7108"
       gradientUnits="userSpaceOnUse"
       gradientTransform="matrix(0.33569917,-0.19381601,0.19381601,0.33569917,376.69353,653.34307)"
       x1="375.09055"
       y1="255.11809"
       x2="400.60629"
       y2="255.11809" />
    <linearGradient
       inkscape:collect="always"
       xlink:href="#linearGradient19735"
       id="linearGradient7111"
       gradientUnits="userSpaceOnUse"
       gradientTransform="matrix(0.33569917,-0.19381601,0.19381601,0.33569917,374.63328,649.77462)"
       x1="375.09055"
       y1="255.11809"
       x2="400.60629"
       y2="255.11809" />
    <linearGradient
       inkscape:collect="always"
       xlink:href="#linearGradient19735"
       id="linearGradient7114"
       gradientUnits="userSpaceOnUse"
       gradientTransform="matrix(0.33569917,-0.19381601,0.19381601,0.33569917,366.39228,635.50079)"
       x1="375.09055"
       y1="255.11809"
       x2="400.60629"
       y2="255.11809" />
    <linearGradient
       inkscape:collect="always"
       xlink:href="#linearGradient19735"
       id="linearGradient7117"
       gradientUnits="userSpaceOnUse"
       gradientTransform="matrix(0.33569917,-0.19381601,0.19381601,0.33569917,372.57303,646.20616)"
       x1="375.09055"
       y1="255.11809"
       x2="400.60629"
       y2="255.11809" />
    <linearGradient
       inkscape:collect="always"
       xlink:href="#linearGradient19735"
       id="linearGradient7120"
       gradientUnits="userSpaceOnUse"
       gradientTransform="matrix(0.33569917,-0.19381601,0.19381601,0.33569917,368.45253,639.06925)"
       x1="375.09055"
       y1="255.11809"
       x2="400.60629"
       y2="255.11809" />
    <linearGradient
       inkscape:collect="always"
       xlink:href="#linearGradient19735"
       id="linearGradient7123"
       gradientUnits="userSpaceOnUse"
       gradientTransform="matrix(0.33569917,-0.19381601,0.19381601,0.33569917,370.51278,642.63771)"
       x1="375.09055"
       y1="255.11809"
       x2="400.60629"
       y2="255.11809" />
    <linearGradient
       inkscape:collect="always"
       xlink:href="#linearGradient19735"
       id="linearGradient7126"
       gradientUnits="userSpaceOnUse"
       gradientTransform="matrix(0.33569917,-0.19381601,0.19381601,0.33569917,364.33204,631.93234)"
       x1="375.09055"
       y1="255.11809"
       x2="400.60629"
       y2="255.11809" />
    <linearGradient
       inkscape:collect="always"
       xlink:href="#linearGradient19735"
       id="linearGradient7129"
       gradientUnits="userSpaceOnUse"
       gradientTransform="matrix(0.33569917,-0.19381601,0.19381601,0.33569917,362.27179,628.36388)"
       x1="375.09055"
       y1="255.11809"
       x2="400.60629"
       y2="255.11809" />
    <linearGradient
       inkscape:collect="always"
       xlink:href="#linearGradient19735"
       id="linearGradient7132"
       gradientUnits="userSpaceOnUse"
       gradientTransform="matrix(0.33569917,-0.19381601,0.19381601,0.33569917,354.03079,614.09006)"
       x1="375.09055"
       y1="255.11809"
       x2="400.60629"
       y2="255.11809" />
    <linearGradient
       inkscape:collect="always"
       xlink:href="#linearGradient19735"
       id="linearGradient7135"
       gradientUnits="userSpaceOnUse"
       gradientTransform="matrix(0.33569917,-0.19381601,0.19381601,0.33569917,360.21154,624.79543)"
       x1="375.09055"
       y1="255.11809"
       x2="400.60629"
       y2="255.11809" />
    <linearGradient
       inkscape:collect="always"
       xlink:href="#linearGradient19735"
       id="linearGradient7138"
       gradientUnits="userSpaceOnUse"
       gradientTransform="matrix(0.33569917,-0.19381601,0.19381601,0.33569917,356.09104,617.65852)"
       x1="375.09055"
       y1="255.11809"
       x2="400.60629"
       y2="255.11809" />
    <linearGradient
       inkscape:collect="always"
       xlink:href="#linearGradient19735"
       id="linearGradient7141"
       gradientUnits="userSpaceOnUse"
       gradientTransform="matrix(0.33569917,-0.19381601,0.19381601,0.33569917,358.15129,621.22697)"
       x1="375.09055"
       y1="255.11809"
       x2="400.60629"
       y2="255.11809" />
    <linearGradient
       inkscape:collect="always"
       xlink:href="#linearGradient19735"
       id="linearGradient7144"
       gradientUnits="userSpaceOnUse"
       gradientTransform="matrix(0.33569917,-0.19381601,0.19381601,0.33569917,351.97054,610.52161)"
       x1="375.09055"
       y1="255.11809"
       x2="400.60629"
       y2="255.11809" />
    <linearGradient
       inkscape:collect="always"
       xlink:href="#linearGradient19735"
       id="linearGradient7147"
       gradientUnits="userSpaceOnUse"
       gradientTransform="matrix(0.33569917,-0.19381601,0.19381601,0.33569917,349.9103,606.95315)"
       x1="375.09055"
       y1="255.11809"
       x2="400.60629"
       y2="255.11809" />
    <linearGradient
       inkscape:collect="always"
       xlink:href="#linearGradient19735"
       id="linearGradient7150"
       gradientUnits="userSpaceOnUse"
       gradientTransform="matrix(0.33569917,-0.19381601,0.19381601,0.33569917,341.6693,592.67933)"
       x1="375.09055"
       y1="255.11809"
       x2="400.60629"
       y2="255.11809" />
    <linearGradient
       inkscape:collect="always"
       xlink:href="#linearGradient19735"
       id="linearGradient7153"
       gradientUnits="userSpaceOnUse"
       gradientTransform="matrix(0.33569917,-0.19381601,0.19381601,0.33569917,347.85005,603.3847)"
       x1="375.09055"
       y1="255.11809"
       x2="400.60629"
       y2="255.11809" />
    <linearGradient
       inkscape:collect="always"
       xlink:href="#linearGradient19735"
       id="linearGradient7156"
       gradientUnits="userSpaceOnUse"
       gradientTransform="matrix(0.33569917,-0.19381601,0.19381601,0.33569917,343.72955,596.24778)"
       x1="375.09055"
       y1="255.11809"
       x2="400.60629"
       y2="255.11809" />
    <linearGradient
       inkscape:collect="always"
       xlink:href="#linearGradient19735"
       id="linearGradient7159"
       gradientUnits="userSpaceOnUse"
       gradientTransform="matrix(0.33569917,-0.19381601,0.19381601,0.33569917,345.7898,599.81624)"
       x1="375.09055"
       y1="255.11809"
       x2="400.60629"
       y2="255.11809" />
    <linearGradient
       inkscape:collect="always"
       xlink:href="#linearGradient19735"
       id="linearGradient7162"
       gradientUnits="userSpaceOnUse"
       gradientTransform="matrix(0.33569917,-0.19381601,0.19381601,0.33569917,339.60905,589.11087)"
       x1="375.09055"
       y1="255.11809"
       x2="400.60629"
       y2="255.11809" />
    <linearGradient
       inkscape:collect="always"
       xlink:href="#linearGradient19735"
       id="linearGradient7165"
       gradientUnits="userSpaceOnUse"
       gradientTransform="matrix(0.33569917,-0.19381601,0.19381601,0.33569917,337.5488,585.54242)"
       x1="375.09055"
       y1="255.11809"
       x2="400.60629"
       y2="255.11809" />
    <linearGradient
       inkscape:collect="always"
       xlink:href="#linearGradient12924"
       id="linearGradient7169"
       gradientUnits="userSpaceOnUse"
       gradientTransform="matrix(0.33569917,-0.19381601,0.19381601,0.33569917,337.54881,585.54242)"
       x1="318.39764"
       y1="444.68503"
       x2="425.69684"
       y2="444.68503" />
    <linearGradient
       inkscape:collect="always"
       xlink:href="#linearGradient15843"
       id="linearGradient7172"
       gradientUnits="userSpaceOnUse"
       gradientTransform="matrix(0.33569917,-0.19381601,0.19381601,0.33569917,356.28714,618.47834)"
       x1="332.71655"
       y1="201.96848"
       x2="411.37796"
       y2="201.96848" />
    <linearGradient
       inkscape:collect="always"
       xlink:href="#linearGradient5970"
       id="linearGradient7211"
       gradientUnits="userSpaceOnUse"
       gradientTransform="matrix(0.15548726,0,0,0.15548726,420.23862,18.208699)"
       x1="-1009.7177"
       y1="3386.782"
       x2="-237.95033"
       y2="3386.782" />
  </defs>
  <sodipodi:namedview
     id="base"
     pagecolor="#ffffff"
     bordercolor="#666666"
     borderopacity="1.0"
     inkscape:pageopacity="0.0"
     inkscape:pageshadow="2"
     inkscape:zoom="1"
     inkscape:cx="180.65619"
     inkscape:cy="796.40948"
     inkscape:document-units="px"
     inkscape:current-layer="layer1"
     showgrid="false"
     showguides="false"
     inkscape:guide-bbox="true"
     inkscape:window-width="1172"
     inkscape:window-height="724"
     inkscape:window-x="139"
     inkscape:window-y="66"
     inkscape:window-maximized="0">
    <sodipodi:guide
       orientation="0,1"
       position="-705.71429,900"
       id="guide3279" />
    <sodipodi:guide
       orientation="0,1"
       position="-500,700"
       id="guide3281" />
    <sodipodi:guide
       orientation="0,1"
       position="450,512.75"
       id="guide3283" />
    <sodipodi:guide
       orientation="0,1"
       position="91.428571,300"
       id="guide3285" />
    <sodipodi:guide
       orientation="0,1"
       position="102.85714,100"
       id="guide3287" />
    <sodipodi:guide
       orientation="1,0"
       position="200,500"
       id="guide3289" />
    <sodipodi:guide
       orientation="1,0"
       position="400,385.71429"
       id="guide3291" />
    <sodipodi:guide
       orientation="1,0"
       position="600,600"
       id="guide3293" />
    <sodipodi:guide
       orientation="0,1"
       position="454.66966,1037.3256"
       id="guide5956" />
    <sodipodi:guide
       orientation="1,0"
       position="450,1042.2754"
       id="guide5960" />
    <sodipodi:guide
       orientation="1,0"
       position="460,927.54732"
       id="guide5962" />
    <sodipodi:guide
       orientation="1,0"
       position="79,562.875"
       id="guide6034" />
    <sodipodi:guide
       orientation="1,0"
       position="-24.748737,610.23315"
       id="guide6036" />
    <sodipodi:guide
       orientation="1,0"
       position="81,594.375"
       id="guide6038" />
    <sodipodi:guide
       orientation="0,1"
       position="81,655.5625"
       id="guide6042" />
    <sodipodi:guide
       orientation="0,1"
       position="82.03125,563.4375"
       id="guide6044" />
    <sodipodi:guide
       orientation="0,1"
       position="105.35891,646.64915"
       id="guide6046" />
    <sodipodi:guide
       orientation="1,0"
       position="75,655.5625"
       id="guide6048" />
    <sodipodi:guide
       orientation="1,0"
       position="83,646.64915"
       id="guide6050" />
    <sodipodi:guide
       orientation="0,1"
       position="89.75,658.5"
       id="guide6052" />
    <sodipodi:guide
       orientation="1,0"
       position="73,670.625"
       id="guide6054" />
    <sodipodi:guide
       orientation="1,0"
       position="85,667.875"
       id="guide6056" />
    <sodipodi:guide
       orientation="0,1"
       position="89.125,681.25"
       id="guide6058" />
    <sodipodi:guide
       orientation="0,1"
       position="73,662.125"
       id="guide6060" />
    <sodipodi:guide
       orientation="0,1"
       position="257.38687,259.50819"
       id="guide6556" />
  </sodipodi:namedview>
  <metadata
     id="metadata3276">
    <rdf:RDF>
      <cc:Work
         rdf:about="">
        <dc:format>image/svg+xml</dc:format>
        <dc:type
           rdf:resource="http://purl.org/dc/dcmitype/StillImage" />
        <dc:title></dc:title>
      </cc:Work>
    </rdf:RDF>
  </metadata>
  <g
     inkscape:label="Calque 1"
     inkscape:groupmode="layer"
     id="layer1">
    <text
       xml:space="preserve"
       style="font-size:20px;font-style:normal;font-variant:normal;font-weight:600;font-stretch:normal;text-align:start;line-height:125%;letter-spacing:0px;word-spacing:0px;writing-mode:lr-tb;text-anchor:start;fill:#000000;fill-opacity:1;stroke:none;font-family:FreeSans;-inkscape-font-specification:FreeSans Semi-Bold"
       x="11.428571"
       y="315.21933"
       id="text3295"
       sodipodi:linespacing="125%"><tspan
         sodipodi:role="line"
         id="tspan3297"
         x="11.428571"
         y="315.21933">Hémocultures</tspan><tspan
         sodipodi:role="line"
         x="11.428571"
         y="340.21933"
         id="tspan4095">[an]aérobiose</tspan></text>
    <g
       id="g7241"
       inkscape:export-filename="/home/nicolas/Documents/django/ekzamenoj/doc/importations/bons/hemocultures.png"
       inkscape:export-xdpi="35.593929"
       inkscape:export-ydpi="35.593929">
      <path
         transform="matrix(0.95813186,0,0,1.0421786,1.0536901,3.3515631)"
         d="m 87.883272,205.34927 a 31.31473,28.789347 0 1 1 -62.629459,0 31.31473,28.789347 0 1 1 62.629459,0 z"
         sodipodi:ry="28.789347"
         sodipodi:rx="31.31473"
         sodipodi:cy="205.34927"
         sodipodi:cx="56.568542"
         id="path3299"
         style="fill:#af1ca0;fill-opacity:1;stroke:#4a1c76;stroke-width:10;stroke-miterlimit:4;stroke-opacity:1;stroke-dasharray:none;stroke-dashoffset:0"
         sodipodi:type="arc" />
      <path
         transform="matrix(0.95813186,0,0,1.0421786,83.180623,3.3515631)"
         d="m 87.883272,205.34927 a 31.31473,28.789347 0 1 1 -62.629459,0 31.31473,28.789347 0 1 1 62.629459,0 z"
         sodipodi:ry="28.789347"
         sodipodi:rx="31.31473"
         sodipodi:cy="205.34927"
         sodipodi:cx="56.568542"
         id="path3299-7"
         style="fill:#471cb6;fill-opacity:1;stroke:#0a1c76;stroke-width:10;stroke-miterlimit:4;stroke-opacity:1;stroke-dasharray:none;stroke-dashoffset:0"
         sodipodi:type="arc" />
    </g>
    <text
       sodipodi:linespacing="125%"
       id="text4087"
       y="314.20917"
       x="218"
       style="font-size:20px;font-style:normal;font-variant:normal;font-weight:600;font-stretch:normal;text-align:start;line-height:125%;letter-spacing:0px;word-spacing:0px;writing-mode:lr-tb;text-anchor:start;fill:#000000;fill-opacity:1;stroke:none;font-family:FreeSans;-inkscape-font-specification:FreeSans Semi-Bold"
       xml:space="preserve"><tspan
         y="314.20917"
         x="218"
         id="tspan4089"
         sodipodi:role="line">Hémoculture</tspan><tspan
         y="339.20917"
         x="218"
         sodipodi:role="line"
         id="tspan4097">pédiatrique</tspan></text>
    <path
       transform="matrix(0.95813186,0,0,1.0421786,234.89924,3.3515631)"
       d="m 87.883272,205.34927 a 31.31473,28.789347 0 1 1 -62.629459,0 31.31473,28.789347 0 1 1 62.629459,0 z"
       sodipodi:ry="28.789347"
       sodipodi:rx="31.31473"
       sodipodi:cy="205.34927"
       sodipodi:cx="56.568542"
       id="path4091"
       style="fill:#59e446;fill-opacity:1;stroke:#4a1c76;stroke-width:10;stroke-miterlimit:4;stroke-opacity:1;stroke-dasharray:none;stroke-dashoffset:0"
       sodipodi:type="arc"
       inkscape:export-filename="/home/nicolas/Documents/django/ekzamenoj/doc/importations/bons/hemoc_pedia.png"
       inkscape:export-xdpi="32.334866"
       inkscape:export-ydpi="32.334866" />
    <text
       xml:space="preserve"
       style="font-size:20px;font-style:normal;font-variant:normal;font-weight:600;font-stretch:normal;text-align:start;line-height:125%;letter-spacing:0px;word-spacing:0px;writing-mode:lr-tb;text-anchor:start;fill:#000000;fill-opacity:1;stroke:none;font-family:FreeSans;-inkscape-font-specification:FreeSans Semi-Bold"
       x="432.32489"
       y="314.20917"
       id="text4099"
       sodipodi:linespacing="125%"><tspan
         id="tspan4103"
         sodipodi:role="line"
         x="432.32489"
         y="314.20917">Hémoculture</tspan><tspan
         sodipodi:role="line"
         x="432.32489"
         y="339.20917"
         id="tspan4109">fongique</tspan></text>
    <path
       sodipodi:type="arc"
       style="fill:#e71a23;fill-opacity:1;stroke:#ff0000;stroke-width:10;stroke-miterlimit:4;stroke-opacity:1;stroke-dasharray:none;stroke-dashoffset:0"
       id="path4105"
       sodipodi:cx="56.568542"
       sodipodi:cy="205.34927"
       sodipodi:rx="31.31473"
       sodipodi:ry="28.789347"
       d="m 87.883272,205.34927 a 31.31473,28.789347 0 1 1 -62.629459,0 31.31473,28.789347 0 1 1 62.629459,0 z"
       transform="matrix(0.95813186,0,0,1.0421786,449.22412,3.3515631)"
       inkscape:export-filename="/home/nicolas/Documents/django/ekzamenoj/doc/importations/bons/hemoc_fongique.png"
       inkscape:export-xdpi="32"
       inkscape:export-ydpi="32" />
    <text
       sodipodi:linespacing="125%"
       id="text4111"
       y="309.15839"
       x="608"
       style="font-size:20px;font-style:normal;font-variant:normal;font-weight:600;font-stretch:normal;text-align:start;line-height:125%;letter-spacing:0px;word-spacing:0px;writing-mode:lr-tb;text-anchor:start;fill:#000000;fill-opacity:1;stroke:none;font-family:FreeSans;-inkscape-font-specification:FreeSans Semi-Bold"
       xml:space="preserve"><tspan
         y="309.15839"
         x="608"
         sodipodi:role="line"
         id="tspan4113">Hémoculture</tspan><tspan
         id="tspan4115"
         y="334.15839"
         x="608"
         sodipodi:role="line">mycobact.</tspan></text>
    <path
       transform="matrix(0.95813186,0,0,1.0421786,624.89922,-1.6991996)"
       d="m 87.883272,205.34927 a 31.31473,28.789347 0 1 1 -62.629459,0 31.31473,28.789347 0 1 1 62.629459,0 z"
       sodipodi:ry="28.789347"
       sodipodi:rx="31.31473"
       sodipodi:cy="205.34927"
       sodipodi:cx="56.568542"
       id="path4117"
       style="fill:#e71a23;fill-opacity:1;stroke:#ff9600;stroke-width:10;stroke-miterlimit:4;stroke-opacity:1;stroke-dasharray:none;stroke-dashoffset:0"
       sodipodi:type="arc"
       inkscape:export-filename="/home/nicolas/Documents/django/ekzamenoj/doc/importations/bons/hemoc_mycobact.png"
       inkscape:export-xdpi="32"
       inkscape:export-ydpi="32" />
    <g
       id="g5839"
       transform="matrix(0.76429774,0,0,0.76429774,27.577165,10.073997)"
       inkscape:export-filename="/home/nicolas/Documents/django/ekzamenoj/doc/importations/tubes/autres/flacon_sterile.png"
       inkscape:export-xdpi="47.102062"
       inkscape:export-ydpi="47.102062">
      <rect
         y="24.229942"
         x="50"
         height="96.010406"
         width="65"
         id="rect4240"
         style="fill:url(#linearGradient5861);fill-opacity:1;stroke:#040000;stroke-linejoin:round;stroke-opacity:0.5" />
      <rect
         ry="0"
         y="8.4463081"
         x="45"
         height="28.284275"
         width="75"
         id="rect4313"
         style="fill:#dc0000;fill-opacity:1;stroke:none" />
      <path
         inkscape:connector-curvature="0"
         id="path5791"
         d="m 48.5,8.433609 0,28.370534"
         style="fill:none;stroke:#ffffff;stroke-width:1px;stroke-linecap:butt;stroke-linejoin:miter;stroke-opacity:0.57083333" />
      <path
         style="fill:none;stroke:#ffffff;stroke-width:1px;stroke-linecap:butt;stroke-linejoin:miter;stroke-opacity:0.57083333"
         d="m 52.5,8.433609 0,28.370534"
         id="path5793"
         inkscape:connector-curvature="0" />
      <path
         inkscape:connector-curvature="0"
         id="path5795"
         d="m 56.5,8.433609 0,28.370534"
         style="fill:none;stroke:#ffffff;stroke-width:1px;stroke-linecap:butt;stroke-linejoin:miter;stroke-opacity:0.57083333" />
      <path
         style="fill:none;stroke:#ffffff;stroke-width:1px;stroke-linecap:butt;stroke-linejoin:miter;stroke-opacity:0.57083333"
         d="m 60.5,8.433609 0,28.370534"
         id="path5797"
         inkscape:connector-curvature="0" />
      <path
         inkscape:connector-curvature="0"
         id="path5799"
         d="m 64.5,8.433609 0,28.370534"
         style="fill:none;stroke:#ffffff;stroke-width:1px;stroke-linecap:butt;stroke-linejoin:miter;stroke-opacity:0.57083333" />
      <path
         style="fill:none;stroke:#ffffff;stroke-width:1px;stroke-linecap:butt;stroke-linejoin:miter;stroke-opacity:0.57083333"
         d="m 68.5,8.433609 0,28.370534"
         id="path5801"
         inkscape:connector-curvature="0" />
      <path
         inkscape:connector-curvature="0"
         id="path5803"
         d="m 72.5,8.433609 0,28.370534"
         style="fill:none;stroke:#ffffff;stroke-width:1px;stroke-linecap:butt;stroke-linejoin:miter;stroke-opacity:0.57083333" />
      <path
         style="fill:none;stroke:#ffffff;stroke-width:1px;stroke-linecap:butt;stroke-linejoin:miter;stroke-opacity:0.57083333"
         d="m 76.5,8.433609 0,28.370534"
         id="path5805"
         inkscape:connector-curvature="0" />
      <path
         inkscape:connector-curvature="0"
         id="path5807"
         d="m 80.5,8.433609 0,28.370534"
         style="fill:none;stroke:#ffffff;stroke-width:1px;stroke-linecap:butt;stroke-linejoin:miter;stroke-opacity:0.57083333" />
      <path
         style="fill:none;stroke:#ffffff;stroke-width:1px;stroke-linecap:butt;stroke-linejoin:miter;stroke-opacity:0.57083333"
         d="m 84.5,8.433609 0,28.370534"
         id="path5809"
         inkscape:connector-curvature="0" />
      <path
         inkscape:connector-curvature="0"
         id="path5811"
         d="m 88.5,8.433609 0,28.370534"
         style="fill:none;stroke:#ffffff;stroke-width:1px;stroke-linecap:butt;stroke-linejoin:miter;stroke-opacity:0.57083333" />
      <path
         style="fill:none;stroke:#ffffff;stroke-width:1px;stroke-linecap:butt;stroke-linejoin:miter;stroke-opacity:0.57083333"
         d="m 92.5,8.433609 0,28.370534"
         id="path5813"
         inkscape:connector-curvature="0" />
      <path
         inkscape:connector-curvature="0"
         id="path5815"
         d="m 96.5,8.433609 0,28.370534"
         style="fill:none;stroke:#ffffff;stroke-width:1px;stroke-linecap:butt;stroke-linejoin:miter;stroke-opacity:0.57083333" />
      <path
         style="fill:none;stroke:#ffffff;stroke-width:1px;stroke-linecap:butt;stroke-linejoin:miter;stroke-opacity:0.57083333"
         d="m 100.5,8.433609 0,28.370534"
         id="path5817"
         inkscape:connector-curvature="0" />
      <path
         inkscape:connector-curvature="0"
         id="path5819"
         d="m 104.5,8.433609 0,28.370534"
         style="fill:none;stroke:#ffffff;stroke-width:1px;stroke-linecap:butt;stroke-linejoin:miter;stroke-opacity:0.57083333" />
      <path
         style="fill:none;stroke:#ffffff;stroke-width:1px;stroke-linecap:butt;stroke-linejoin:miter;stroke-opacity:0.57083333"
         d="m 108.5,8.433609 0,28.370534"
         id="path5821"
         inkscape:connector-curvature="0" />
      <path
         inkscape:connector-curvature="0"
         id="path5827"
         d="m 112.5,8.433609 0,28.370534"
         style="fill:none;stroke:#ffffff;stroke-width:1px;stroke-linecap:butt;stroke-linejoin:miter;stroke-opacity:0.57083333" />
      <path
         style="fill:none;stroke:#ffffff;stroke-width:1px;stroke-linecap:butt;stroke-linejoin:miter;stroke-opacity:0.57083333"
         d="m 116.5,8.433609 0,28.370534"
         id="path5829"
         inkscape:connector-curvature="0" />
    </g>
    <text
       xml:space="preserve"
       style="font-size:20px;font-style:normal;font-variant:normal;font-weight:600;font-stretch:normal;text-align:start;line-height:125%;letter-spacing:0px;word-spacing:0px;writing-mode:lr-tb;text-anchor:start;fill:#000000;fill-opacity:1;stroke:none;font-family:FreeSans;-inkscape-font-specification:FreeSans Semi-Bold"
       x="55.234016"
       y="122.17361"
       id="text5833"
       sodipodi:linespacing="125%"><tspan
         sodipodi:role="line"
         id="tspan5835"
         x="55.234016"
         y="122.17361">Flacon</tspan><tspan
         sodipodi:role="line"
         x="55.234016"
         y="147.1736"
         id="tspan5837">stérile</tspan></text>
    <g
       id="g7219"
       inkscape:export-filename="/home/nicolas/Documents/django/ekzamenoj/doc/importations/tubes/autres/flacon_non_sterile.png"
       inkscape:export-xdpi="46.277451"
       inkscape:export-ydpi="46.277451">
      <rect
         style="fill:url(#linearGradient5933);fill-opacity:1;stroke:#040000;stroke-width:0.76429772;stroke-linejoin:round;stroke-opacity:0.5"
         id="rect5865"
         width="49.679352"
         height="73.380539"
         x="271.27228"
         y="27.178675" />
      <rect
         style="fill:#ffffff;fill-opacity:1;stroke:#000003;stroke-opacity:0.40392157"
         id="rect5867"
         width="57.32233"
         height="21.617607"
         x="267.45081"
         y="15.115277"
         ry="0" />
      <path
         style="fill:none;stroke:#000003;stroke-width:0.76429772px;stroke-linecap:butt;stroke-linejoin:miter;stroke-opacity:0.40416667"
         d="m 270.12584,15.105572 0,21.683535"
         id="path5869"
         inkscape:connector-curvature="0" />
      <path
         inkscape:connector-curvature="0"
         id="path5871"
         d="m 273.18303,15.105572 0,21.683535"
         style="fill:none;stroke:#000003;stroke-width:0.76429772px;stroke-linecap:butt;stroke-linejoin:miter;stroke-opacity:0.40416667" />
      <path
         style="fill:none;stroke:#000003;stroke-width:0.76429772px;stroke-linecap:butt;stroke-linejoin:miter;stroke-opacity:0.40416667"
         d="m 276.24022,15.105572 0,21.683535"
         id="path5873"
         inkscape:connector-curvature="0" />
      <path
         inkscape:connector-curvature="0"
         id="path5875"
         d="m 279.29741,15.105572 0,21.683535"
         style="fill:none;stroke:#000003;stroke-width:0.76429772px;stroke-linecap:butt;stroke-linejoin:miter;stroke-opacity:0.40416667" />
      <path
         style="fill:none;stroke:#000003;stroke-width:0.76429772px;stroke-linecap:butt;stroke-linejoin:miter;stroke-opacity:0.40416667"
         d="m 282.3546,15.105572 0,21.683535"
         id="path5877"
         inkscape:connector-curvature="0" />
      <path
         inkscape:connector-curvature="0"
         id="path5879"
         d="m 285.41179,15.105572 0,21.683535"
         style="fill:none;stroke:#000003;stroke-width:0.76429772px;stroke-linecap:butt;stroke-linejoin:miter;stroke-opacity:0.40416667" />
      <path
         style="fill:none;stroke:#000003;stroke-width:0.76429772px;stroke-linecap:butt;stroke-linejoin:miter;stroke-opacity:0.40416667"
         d="m 288.46898,15.105572 0,21.683535"
         id="path5881"
         inkscape:connector-curvature="0" />
      <path
         inkscape:connector-curvature="0"
         id="path5883"
         d="m 291.52617,15.105572 0,21.683535"
         style="fill:none;stroke:#000003;stroke-width:0.76429772px;stroke-linecap:butt;stroke-linejoin:miter;stroke-opacity:0.40416667" />
      <path
         style="fill:none;stroke:#000003;stroke-width:0.76429772px;stroke-linecap:butt;stroke-linejoin:miter;stroke-opacity:0.40416667"
         d="m 294.58337,15.105572 0,21.683535"
         id="path5885"
         inkscape:connector-curvature="0" />
      <path
         inkscape:connector-curvature="0"
         id="path5887"
         d="m 297.64056,15.105572 0,21.683535"
         style="fill:none;stroke:#000003;stroke-width:0.76429772px;stroke-linecap:butt;stroke-linejoin:miter;stroke-opacity:0.40416667" />
      <path
         style="fill:none;stroke:#000003;stroke-width:0.76429772px;stroke-linecap:butt;stroke-linejoin:miter;stroke-opacity:0.40416667"
         d="m 300.69775,15.105572 0,21.683535"
         id="path5889"
         inkscape:connector-curvature="0" />
      <path
         inkscape:connector-curvature="0"
         id="path5891"
         d="m 303.75494,15.105572 0,21.683535"
         style="fill:none;stroke:#000003;stroke-width:0.76429772px;stroke-linecap:butt;stroke-linejoin:miter;stroke-opacity:0.40416667" />
      <path
         style="fill:none;stroke:#000003;stroke-width:0.76429772px;stroke-linecap:butt;stroke-linejoin:miter;stroke-opacity:0.40416667"
         d="m 306.81213,15.105572 0,21.683535"
         id="path5893"
         inkscape:connector-curvature="0" />
      <path
         inkscape:connector-curvature="0"
         id="path5895"
         d="m 309.86932,15.105572 0,21.683535"
         style="fill:none;stroke:#000003;stroke-width:0.76429772px;stroke-linecap:butt;stroke-linejoin:miter;stroke-opacity:0.40416667" />
      <path
         style="fill:none;stroke:#000003;stroke-width:0.76429772px;stroke-linecap:butt;stroke-linejoin:miter;stroke-opacity:0.40416667"
         d="m 312.92651,15.105572 0,21.683535"
         id="path5897"
         inkscape:connector-curvature="0" />
      <path
         inkscape:connector-curvature="0"
         id="path5899"
         d="m 315.9837,15.105572 0,21.683535"
         style="fill:none;stroke:#000003;stroke-width:0.76429772px;stroke-linecap:butt;stroke-linejoin:miter;stroke-opacity:0.40416667" />
      <path
         style="fill:none;stroke:#000003;stroke-width:0.76429772px;stroke-linecap:butt;stroke-linejoin:miter;stroke-opacity:0.40416667"
         d="m 319.04089,15.105572 0,21.683535"
         id="path5901"
         inkscape:connector-curvature="0" />
      <path
         inkscape:connector-curvature="0"
         id="path5903"
         d="m 322.09808,15.105572 0,21.683535"
         style="fill:none;stroke:#000003;stroke-width:0.76429772px;stroke-linecap:butt;stroke-linejoin:miter;stroke-opacity:0.40416667" />
    </g>
    <text
       sodipodi:linespacing="125%"
       id="text5905"
       y="120.75938"
       x="260.71426"
       style="font-size:20px;font-style:normal;font-variant:normal;font-weight:600;font-stretch:normal;text-align:start;line-height:125%;letter-spacing:0px;word-spacing:0px;writing-mode:lr-tb;text-anchor:start;fill:#000000;fill-opacity:1;stroke:none;font-family:FreeSans;-inkscape-font-specification:FreeSans Semi-Bold"
       xml:space="preserve"><tspan
         y="120.75938"
         x="260.71426"
         id="tspan5907"
         sodipodi:role="line">Flacon</tspan><tspan
         id="tspan5909"
         y="145.75937"
         x="260.71426"
         sodipodi:role="line">non stérile</tspan></text>
    <g
       id="g6007"
       transform="translate(40,-13.5)"
       inkscape:export-filename="/home/nicolas/Documents/django/ekzamenoj/doc/importations/tubes/autres/borate.png"
       inkscape:export-xdpi="46"
       inkscape:export-ydpi="46">
      <path
         sodipodi:nodetypes="czzcc"
         inkscape:connector-curvature="0"
         id="path5958"
         d="m 487.48235,21.728775 c 0,0 -74.04269,79.197765 -73.05956,85.381615 0.98313,6.18385 8.28512,12.29855 14.48926,12.36388 6.20414,0.0653 72.59752,-85.775879 72.59752,-85.775879 l 0,0"
         style="fill:none;stroke:#000000;stroke-width:0.95257705px;stroke-linecap:butt;stroke-linejoin:miter;stroke-opacity:1" />
      <path
         d="m 506.63109,32.907186 c -1.91593,2.245288 -7.31179,0.786437 -12.05198,-3.258437 -4.74019,-4.04486 -7.02971,-9.144044 -5.11378,-11.389331 1.91594,-2.245286 7.3118,-0.786431 12.05198,3.258429 4.7402,4.044874 7.02971,9.144054 5.11378,11.389339 z m 0,0 c 1.91495,-2.24413 -10.22692,11.984949 -12.14186,14.229076 -1.91494,2.244128 -7.31423,0.784354 -12.05199,-3.258436 -4.73774,-4.042783 -7.02871,-9.145204 -5.11377,-11.389333 1.91495,-2.244127 14.05681,-16.473205 12.14186,-14.229075 -1.91494,2.244129 0.37603,7.346548 5.11378,11.389331 4.73775,4.04279 10.13704,5.502566 12.05198,3.258437 z"
         id="bouchon-9"
         style="fill:url(#linearGradient3028);fill-opacity:1;stroke:none"
         inkscape:connector-curvature="0">
        <title
           id="title4194-1">Bouchon</title>
      </path>
      <path
         d="m 505.45697,31.711562 c -1.86273,2.182934 -7.22608,0.664459 -11.97939,-3.391605 -4.75331,-4.056057 -7.0966,-9.113767 -5.23387,-11.2967 1.86272,-2.18293 7.22608,-0.664453 11.97939,3.391605 4.75331,4.056064 7.09659,9.11377 5.23387,11.2967 z m 0,0 c 1.86176,-2.181807 -9.94291,11.652113 -11.80467,13.833918 -1.86176,2.181805 -7.22853,0.662371 -11.97939,-3.391603 -4.75086,-4.053974 -7.09563,-9.114897 -5.23387,-11.296702 1.86176,-2.181805 13.66643,-16.015725 11.80467,-13.833918 -1.86177,2.181808 0.483,7.242726 5.23387,11.2967 4.75086,4.053974 10.11762,5.573413 11.97939,3.391605 z"
         id="bouchon"
         style="fill:#e9704f;fill-opacity:1;stroke:none"
         inkscape:connector-curvature="0">
        <title
           id="title4194">Bouchon</title>
      </path>
      <path
         inkscape:export-ydpi="10"
         inkscape:export-xdpi="10"
         inkscape:export-filename="/home/nicolas/Documents/django/ekzamenoj/doc/importations/tubes/bouchon_vert_colerette_jaune.png"
         d="m 505.68078,31.492785 c 1.86176,-2.181808 -9.87221,11.587447 -11.73398,13.769252 -2.29816,2.693217 -7.49037,0.969212 -12.24123,-3.084756 -4.75086,-4.053974 -7.27019,-8.910338 -4.97204,-11.603556 1.86177,-2.181805 13.57916,-15.913443 11.71739,-13.731635 -5.00877,5.832507 13.07416,20.618173 17.22979,14.650638 z"
         id="bouchon-7"
         style="fill:#eee012;fill-opacity:1;stroke:#000000;stroke-width:0.18596047;stroke-linecap:round;stroke-linejoin:round;stroke-miterlimit:4;stroke-opacity:1;stroke-dashoffset:0"
         inkscape:connector-curvature="0">
        <title
           id="title4194-3">Bouchon</title>
      </path>
      <path
         d="m 487.14743,45.48153 11.63011,-13.629352 m 1.68587,0.604284 -11.63011,13.629355 m -3.45887,-1.487193 11.63011,-13.629352 m 5.00931,1.799172 -11.63011,13.629353 m -6.82116,-2.947046 11.63011,-13.629352 m 8.18787,2.953045 -11.6301,13.629352 M 481.76019,42.051594 493.3903,28.42224 M 480.09491,40.491742 491.72502,26.86239 m -13.0487,12.020641 11.6301,-13.629352 m -12.78094,12.017317 11.63011,-13.629352 m -12.49208,12.059535 11.63011,-13.629355 m -12.1821,12.147297 11.63011,-13.629352 M 475.89059,32.870362 487.5207,19.24101"
         id="grille"
         style="fill:none;stroke:#9b9b27;stroke-width:0.66554004;stroke-linecap:round;stroke-linejoin:round;stroke-miterlimit:4;stroke-opacity:0.8;stroke-dasharray:none;stroke-dashoffset:0"
         inkscape:connector-curvature="0">
        <title
           id="title4192">Grile</title>
      </path>
      <path
         d="m 505.4897,31.735029 c -1.86273,2.182934 -7.22609,0.664454 -11.9794,-3.391611 -4.75331,-4.056057 -7.0966,-9.113767 -5.23387,-11.296701 1.86272,-2.18293 7.22609,-0.664452 11.97939,3.391605 4.75331,4.056064 7.0966,9.113777 5.23388,11.296707 z"
         id="Colerette"
         style="fill:#ffff00;stroke:#000000;stroke-width:0.18596047;stroke-linecap:round;stroke-linejoin:round;stroke-miterlimit:4;stroke-opacity:1;stroke-dashoffset:0"
         inkscape:connector-curvature="0">
        <title
           id="title4190">Colerette</title>
      </path>
      <g
         transform="matrix(0.10125449,0.0864018,-0.0864018,0.10125449,498.96687,-58.526629)"
         id="trou">
        <title
           id="title4188">Trou caoutchouc</title>
        <path
           d="m 436.70536,486.02638 c -0.15374,-0.66842 -0.1633,-1.3659 -0.46875,-2.01279 -0.59977,-1.27017 -1.48594,-2.4922 -2.625,-3.6596 -1.13906,-1.16741 -2.53836,-2.25523 -4.15625,-3.29363 -1.61789,-1.03841 -3.46375,-2.04451 -5.5,-2.92769 -4.0725,-1.76638 -8.92937,-3.15946 -14.3125,-4.14756 -5.38313,-0.98808 -11.29,-1.52483 -17.5,-1.52483 -6.21,0 -12.11687,0.53675 -17.5,1.52483 -5.38313,0.9881 -10.24,2.38118 -14.3125,4.14756 -2.03625,0.88318 -3.88211,1.88928 -5.5,2.92769 -1.61789,1.0384 -3.01719,2.12622 -4.15625,3.29363 -1.13906,1.1674 -2.02523,2.38943 -2.625,3.6596 -0.30545,0.64689 -0.31501,1.34437 -0.46875,2.01279 2.2935,9.84359 21.26588,17.56609 44.5625,17.56609 23.29662,0 42.269,-7.7225 44.5625,-17.56609 z"
           id="path5269-5"
           style="fill:#737373;fill-opacity:1;stroke:#000000;stroke-width:1.39706445;stroke-linecap:round;stroke-linejoin:round;stroke-miterlimit:4;stroke-opacity:1;stroke-dasharray:none;stroke-dashoffset:0"
           inkscape:connector-curvature="0" />
        <path
           d="m 392.14286,464.5567 c -24.84,0 -45,8.74402 -45,19.5179 0,0.66941 0.28556,1.29965 0.4375,1.95178 0.15374,-0.66842 0.1633,-1.3659 0.46875,-2.01279 0.59977,-1.27017 1.48594,-2.4922 2.625,-3.6596 1.13906,-1.16741 2.53836,-2.25523 4.15625,-3.29363 1.61789,-1.03841 3.46375,-2.04451 5.5,-2.92769 4.0725,-1.76638 8.92937,-3.15946 14.3125,-4.14756 5.38313,-0.98808 11.29,-1.52483 17.5,-1.52483 6.21,0 12.11687,0.53675 17.5,1.52483 5.38313,0.9881 10.24,2.38118 14.3125,4.14756 2.03625,0.88318 3.88211,1.88928 5.5,2.92769 1.61789,1.0384 3.01719,2.12622 4.15625,3.29363 1.13906,1.1674 2.02523,2.38943 2.625,3.6596 0.30545,0.64689 0.31501,1.34437 0.46875,2.01279 0.15194,-0.65213 0.4375,-1.28237 0.4375,-1.95178 0,-10.77388 -20.16,-19.5179 -45,-19.5179 z"
           id="path5260-27"
           style="fill:#737373;fill-opacity:1;stroke:#000000;stroke-width:1.39706445;stroke-linecap:round;stroke-linejoin:round;stroke-miterlimit:4;stroke-opacity:1;stroke-dasharray:none;stroke-dashoffset:0"
           inkscape:connector-curvature="0" />
      </g>
    </g>
    <text
       xml:space="preserve"
       style="font-size:20px;font-style:normal;font-variant:normal;font-weight:600;font-stretch:normal;text-align:start;line-height:125%;letter-spacing:0px;word-spacing:0px;writing-mode:lr-tb;text-anchor:start;fill:#000000;fill-opacity:1;stroke:none;font-family:FreeSans;-inkscape-font-specification:FreeSans Semi-Bold"
       x="434.16357"
       y="123.57742"
       id="text6024"
       sodipodi:linespacing="125%"><tspan
         sodipodi:role="line"
         id="tspan6026"
         x="434.16357"
         y="123.57742">Acide borique</tspan><tspan
         sodipodi:role="line"
         x="434.16357"
         y="148.57742"
         id="tspan6028">urines</tspan></text>
    <g
       transform="matrix(0.63615097,0.77156461,-0.77156461,0.63615097,385.1048,99.809795)"
       id="g6079"
       inkscape:export-filename="/home/nicolas/Documents/django/ekzamenoj/doc/importations/tubes/autres/ecouvillon.png"
       inkscape:export-xdpi="34.735901"
       inkscape:export-ydpi="34.735901">
      <path
         transform="matrix(0.28967313,0,0,0.41707282,59.394481,309.79543)"
         d="m 86.5,459.61218 c 0,18.63961 -8.618519,33.75 -19.25,33.75 -10.631481,0 -19.25,-15.11039 -19.25,-33.75 0,-18.63961 8.618519,-33.75 19.25,-33.75 10.631481,0 19.25,15.11039 19.25,33.75 z"
         sodipodi:ry="33.75"
         sodipodi:rx="19.25"
         sodipodi:cy="459.61218"
         sodipodi:cx="67.25"
         id="path6032"
         style="fill:none;stroke:#484848;stroke-opacity:0.65"
         sodipodi:type="arc" />
      <path
         sodipodi:nodetypes="cccccccccc"
         inkscape:connector-curvature="0"
         id="path6040"
         d="m 73,390.23718 0,3.625 2,2.9375 2,8.91335 0,83.21165 4,0 0,-83.21165 2,-8.91335 2,-2.9375 0,-3.625"
         style="fill:none;stroke:#484848;stroke-width:1px;stroke-linecap:butt;stroke-linejoin:miter;stroke-opacity:0.65098039" />
      <rect
         y="371.11218"
         x="73"
         height="19.125"
         width="12"
         id="rect6062"
         style="fill:#484848;fill-opacity:0.65098039;stroke:#484848;stroke-width:1;stroke-linejoin:round;stroke-miterlimit:4;stroke-opacity:0.65;stroke-dasharray:none;stroke-dashoffset:0" />
    </g>
    <text
       sodipodi:linespacing="125%"
       id="text6084"
       y="515.66815"
       x="24.041632"
       style="font-size:20px;font-style:normal;font-variant:normal;font-weight:600;font-stretch:normal;text-align:start;line-height:125%;letter-spacing:0px;word-spacing:0px;writing-mode:lr-tb;text-anchor:start;fill:#000000;fill-opacity:1;stroke:none;font-family:FreeSans;-inkscape-font-specification:FreeSans Semi-Bold"
       xml:space="preserve"><tspan
         y="515.66815"
         x="24.041632"
         id="tspan6086"
         sodipodi:role="line">Écouvillon stérile</tspan></text>
    <g
       id="g7267"
       inkscape:export-filename="/home/nicolas/Documents/django/ekzamenoj/doc/importations/tubes/autres/grand_flacon.png"
       inkscape:export-xdpi="46"
       inkscape:export-ydpi="46">
      <g
         id="g7245">
        <path
           style="fill:url(#linearGradient7211);fill-opacity:1;stroke:#000000;stroke-width:1.60486722;stroke-linecap:butt;stroke-linejoin:miter;stroke-miterlimit:4;stroke-opacity:1;stroke-dasharray:none"
           d="m 264.75135,653.89698 116.61545,0 0,-186.27377 c -5.96344,-6.08061 -12.58796,-7.30182 -20.54023,-9.32924 -9.25271,-2.35897 -15.23951,-24.25601 -15.23951,-24.25601 l -47.70632,0 c 0,0 -3.75197,22.04555 -12.58917,24.25601 -8.62191,0.88852 -13.93916,4.314 -20.54022,9.32924 z"
           id="path5948"
           inkscape:connector-curvature="0"
           sodipodi:nodetypes="ccccccccc"
           inkscape:export-filename="Q:\Dossiers communs du pôle\Laboratoire de Biologie Médicale\Accréditation Laboratoires\Site Catalogue\Images\pot-urines24h.png"
           inkscape:export-xdpi="4"
           inkscape:export-ydpi="4" />
        <rect
           style="fill:#dc0000;fill-opacity:1;stroke:none"
           id="rect4313-3"
           width="72.635117"
           height="21.523714"
           x="286.29993"
           y="424.2077"
           ry="0" />
        <path
           style="fill:none;stroke:#ffffff;stroke-width:0.85847718px;stroke-linecap:butt;stroke-linejoin:miter;stroke-opacity:0.57083333"
           d="m 289.68955,424.19804 0,21.58935"
           id="path5791-5"
           inkscape:connector-curvature="0" />
        <path
           inkscape:connector-curvature="0"
           id="path5793-9"
           d="m 293.56342,424.19804 0,21.58935"
           style="fill:none;stroke:#ffffff;stroke-width:0.85847718px;stroke-linecap:butt;stroke-linejoin:miter;stroke-opacity:0.57083333" />
        <path
           style="fill:none;stroke:#ffffff;stroke-width:0.85847718px;stroke-linecap:butt;stroke-linejoin:miter;stroke-opacity:0.57083333"
           d="m 297.43729,424.19804 0,21.58935"
           id="path5795-1"
           inkscape:connector-curvature="0" />
        <path
           inkscape:connector-curvature="0"
           id="path5797-1"
           d="m 301.31116,424.19804 0,21.58935"
           style="fill:none;stroke:#ffffff;stroke-width:0.85847718px;stroke-linecap:butt;stroke-linejoin:miter;stroke-opacity:0.57083333" />
        <path
           style="fill:none;stroke:#ffffff;stroke-width:0.85847718px;stroke-linecap:butt;stroke-linejoin:miter;stroke-opacity:0.57083333"
           d="m 305.18504,424.19804 0,21.58935"
           id="path5799-3"
           inkscape:connector-curvature="0" />
        <path
           inkscape:connector-curvature="0"
           id="path5801-8"
           d="m 309.05892,424.19804 0,21.58935"
           style="fill:none;stroke:#ffffff;stroke-width:0.85847718px;stroke-linecap:butt;stroke-linejoin:miter;stroke-opacity:0.57083333" />
        <path
           style="fill:none;stroke:#ffffff;stroke-width:0.85847718px;stroke-linecap:butt;stroke-linejoin:miter;stroke-opacity:0.57083333"
           d="m 312.93279,424.19804 0,21.58935"
           id="path5803-4"
           inkscape:connector-curvature="0" />
        <path
           inkscape:connector-curvature="0"
           id="path5805-1"
           d="m 316.80666,424.19804 0,21.58935"
           style="fill:none;stroke:#ffffff;stroke-width:0.85847718px;stroke-linecap:butt;stroke-linejoin:miter;stroke-opacity:0.57083333" />
        <path
           style="fill:none;stroke:#ffffff;stroke-width:0.85847718px;stroke-linecap:butt;stroke-linejoin:miter;stroke-opacity:0.57083333"
           d="m 320.68053,424.19804 0,21.58935"
           id="path5807-7"
           inkscape:connector-curvature="0" />
        <path
           inkscape:connector-curvature="0"
           id="path5809-3"
           d="m 324.55441,424.19804 0,21.58935"
           style="fill:none;stroke:#ffffff;stroke-width:0.85847718px;stroke-linecap:butt;stroke-linejoin:miter;stroke-opacity:0.57083333" />
        <path
           style="fill:none;stroke:#ffffff;stroke-width:0.85847718px;stroke-linecap:butt;stroke-linejoin:miter;stroke-opacity:0.57083333"
           d="m 328.42828,424.19804 0,21.58935"
           id="path5811-7"
           inkscape:connector-curvature="0" />
        <path
           inkscape:connector-curvature="0"
           id="path5813-1"
           d="m 332.30215,424.19804 0,21.58935"
           style="fill:none;stroke:#ffffff;stroke-width:0.85847718px;stroke-linecap:butt;stroke-linejoin:miter;stroke-opacity:0.57083333" />
        <path
           style="fill:none;stroke:#ffffff;stroke-width:0.85847718px;stroke-linecap:butt;stroke-linejoin:miter;stroke-opacity:0.57083333"
           d="m 336.17602,424.19804 0,21.58935"
           id="path5815-6"
           inkscape:connector-curvature="0" />
        <path
           inkscape:connector-curvature="0"
           id="path5817-6"
           d="m 340.04989,424.19804 0,21.58935"
           style="fill:none;stroke:#ffffff;stroke-width:0.85847718px;stroke-linecap:butt;stroke-linejoin:miter;stroke-opacity:0.57083333" />
        <path
           style="fill:none;stroke:#ffffff;stroke-width:0.85847718px;stroke-linecap:butt;stroke-linejoin:miter;stroke-opacity:0.57083333"
           d="m 343.92377,424.19804 0,21.58935"
           id="path5819-8"
           inkscape:connector-curvature="0" />
        <path
           inkscape:connector-curvature="0"
           id="path5821-5"
           d="m 347.79764,424.19804 0,21.58935"
           style="fill:none;stroke:#ffffff;stroke-width:0.85847718px;stroke-linecap:butt;stroke-linejoin:miter;stroke-opacity:0.57083333" />
        <path
           style="fill:none;stroke:#ffffff;stroke-width:0.85847718px;stroke-linecap:butt;stroke-linejoin:miter;stroke-opacity:0.57083333"
           d="m 351.67152,424.19804 0,21.58935"
           id="path5827-2"
           inkscape:connector-curvature="0" />
        <path
           inkscape:connector-curvature="0"
           id="path5829-2"
           d="m 355.54539,424.19804 0,21.58935"
           style="fill:none;stroke:#ffffff;stroke-width:0.85847718px;stroke-linecap:butt;stroke-linejoin:miter;stroke-opacity:0.57083333" />
      </g>
    </g>
    <text
       xml:space="preserve"
       style="font-size:20px;font-style:normal;font-variant:normal;font-weight:600;font-stretch:normal;text-align:start;line-height:125%;letter-spacing:0px;word-spacing:0px;writing-mode:lr-tb;text-anchor:start;fill:#000000;fill-opacity:1;stroke:none;font-family:FreeSans;-inkscape-font-specification:FreeSans Semi-Bold"
       x="263.75082"
       y="694.56616"
       id="text6558"
       sodipodi:linespacing="125%"><tspan
         sodipodi:role="line"
         id="tspan6560"
         x="263.75082"
         y="694.56616">Grand flacon</tspan></text>
    <g
       transform="matrix(0.10125449,0.0864018,-0.0864018,0.10125449,565.96687,426.97337)"
       id="g6669">
      <title
         id="title6671">Trou caoutchouc</title>
    </g>
    <g
       id="g6708"
       transform="matrix(0.64376287,0.76522504,-0.76522504,0.64376287,180.52456,-151.61943)"
       inkscape:export-filename="/home/nicolas/Documents/django/ekzamenoj/doc/importations/tubes/autres/milieu_transport.png"
       inkscape:export-xdpi="29.770456"
       inkscape:export-ydpi="29.770456">
      <path
         style="fill:none;stroke:#000000;stroke-width:0.95257705px;stroke-linecap:butt;stroke-linejoin:miter;stroke-opacity:1"
         d="m 517.62505,500.37966 -0.43527,112.37229 c -0.0243,6.26146 19.05686,6.25218 19.04736,0.0477 l -0.17212,-112.37381 0,0"
         id="path6647"
         inkscape:connector-curvature="0"
         sodipodi:nodetypes="csscc" />
      <path
         inkscape:connector-curvature="0"
         style="fill:#e9704f;fill-opacity:1;stroke:none"
         id="path6653"
         d="m 537.78831,496.35648 c -0.007,2.86965 -5.07852,5.18327 -11.32715,5.16762 -6.24863,-0.0156 -11.30832,-2.35464 -11.30113,-5.22429 0.007,-2.86964 5.07852,-5.18327 11.32715,-5.16762 6.24863,0.0156 11.30832,2.35464 11.30113,5.22429 z m 0,0 c 0.007,-2.86817 -0.0384,15.31769 -0.0455,18.18585 -0.007,2.86817 -5.08174,5.18327 -11.32715,5.16763 -6.24541,-0.0156 -11.30832,-2.35612 -11.30114,-5.22429 0.007,-2.86816 0.0527,-21.05402 0.0456,-18.18586 -0.007,2.86817 5.05571,5.20866 11.30113,5.22429 6.24541,0.0156 11.31997,-2.29945 11.32715,-5.16762 z">
        <title
           id="title6655">Bouchon</title>
      </path>
      <path
         inkscape:connector-curvature="0"
         style="fill:#e56600;fill-opacity:1;stroke:#000000;stroke-width:0.18596047;stroke-linecap:round;stroke-linejoin:round;stroke-miterlimit:4;stroke-opacity:1;stroke-dashoffset:0"
         id="path6657"
         d="m 537.81734,496.04485 c 0.007,-2.86817 -0.0263,15.22264 -0.0335,18.09081 -0.009,3.54046 -5.08276,5.58664 -11.32817,5.571 -6.2454,-0.0156 -11.30899,-2.08721 -11.30014,-5.62767 0.007,-2.86817 0.0524,-20.91957 0.0452,-18.05139 -0.0435,7.68791 23.31081,7.25594 22.61652,0.0172 z"
         inkscape:export-filename="/home/nicolas/Documents/django/ekzamenoj/doc/importations/tubes/bouchon_vert_colerette_jaune.png"
         inkscape:export-xdpi="10"
         inkscape:export-ydpi="10">
        <title
           id="title6659">Bouchon</title>
      </path>
      <path
         inkscape:connector-curvature="0"
         style="fill:none;stroke:#3f3f10;stroke-width:0.66554004;stroke-linecap:round;stroke-linejoin:round;stroke-miterlimit:4;stroke-opacity:0.8;stroke-dasharray:none;stroke-dashoffset:0"
         id="path6661"
         d="m 532.74261,518.70356 0.0449,-17.91694 m 1.67626,-0.63045 -0.0449,17.91695 m -3.59927,1.10487 0.0449,-17.91693 m 4.98311,-1.87051 -0.0449,17.91695 m -7.10723,2.16809 0.0449,-17.91694 m 8.15297,-3.04806 -0.0449,17.91693 m -10.43252,3.14798 0.0449,-17.91694 m -2.32388,17.80561 0.0449,-17.91693 m -2.16745,17.6087 0.0449,-17.91693 m -1.96547,17.43288 0.0449,-17.91694 m -1.71795,17.27811 0.0449,-17.91694 m -1.42485,17.14439 0.0449,-17.91694 m -1.08621,17.03174 0.0449,-17.91693">
        <title
           id="title6663">Grile</title>
      </path>
      <path
         inkscape:connector-curvature="0"
         style="fill:#e56600;fill-opacity:1;stroke:#000000;stroke-width:0.18596047;stroke-linecap:round;stroke-linejoin:round;stroke-miterlimit:4;stroke-opacity:1;stroke-dashoffset:0"
         id="path6665"
         d="m 537.82845,496.35318 c -0.007,2.86965 -5.07854,5.18328 -11.32716,5.16763 -6.24863,-0.0156 -11.30833,-2.35464 -11.30114,-5.22429 0.007,-2.86964 5.07854,-5.18327 11.32715,-5.16763 6.24864,0.0157 11.30834,2.35465 11.30115,5.22429 z">
        <title
           id="title6667">Colerette</title>
      </path>
      <path
         sodipodi:nodetypes="cssccc"
         inkscape:connector-curvature="0"
         id="path6706"
         d="m 517.54143,564.79203 -0.43928,50.62919 c -0.0245,2.82109 19.2322,2.81691 19.22262,0.0215 l -0.17371,-50.62988 0,0 z"
         style="fill:#f06b00;fill-opacity:0.33199995;stroke:none" />
    </g>
    <text
       xml:space="preserve"
       style="font-size:20px;font-style:normal;font-variant:normal;font-weight:600;font-stretch:normal;text-align:start;line-height:125%;letter-spacing:0px;word-spacing:0px;writing-mode:lr-tb;text-anchor:start;fill:#000000;fill-opacity:1;stroke:none;font-family:FreeSans;-inkscape-font-specification:FreeSans Semi-Bold"
       x="12.727922"
       y="697.39459"
       id="text6720"
       sodipodi:linespacing="125%"><tspan
         sodipodi:role="line"
         id="tspan6722"
         x="12.727922"
         y="697.39459">Milieu de transport</tspan><tspan
         sodipodi:role="line"
         x="12.727922"
         y="722.39459"
         id="tspan6724">biologie-moéculaire</tspan></text>
    <g
       id="g7175"
       transform="translate(31.112698,-84.852814)"
       inkscape:export-filename="/home/nicolas/Documents/django/ekzamenoj/doc/importations/bons/seringue.png"
       inkscape:export-xdpi="33.095848"
       inkscape:export-ydpi="33.095848">
      <path
         sodipodi:nodetypes="ccccccccc"
         id="path15855"
         d="m 526.41108,646.20262 19.03176,-10.988 34.33749,59.47426 -6.45017,5.30999 19.91574,34.49507 -4.75794,2.747 -19.91574,-34.49507 -7.82366,2.93101 -34.33748,-59.47426 z"
         style="opacity:0.17537315;fill:#ff63aa;fill-opacity:1;fill-rule:evenodd;stroke:none"
         inkscape:connector-curvature="0" />
      <path
         sodipodi:nodetypes="ccccccccccccccc"
         id="path12934"
         d="m 546.33889,678.45179 16.6528,-9.6145 -1.3735,-2.37897 c -2.37897,1.3735 -4.25521,0.87076 -6.13144,0.36803 l -63.86772,-110.62213 0.50274,-1.87624 8.32639,-4.80724 -1.3735,-2.37897 -26.16867,15.10849 1.3735,2.37897 8.3264,-4.80725 1.87623,0.50274 63.86772,110.62213 c -0.50274,1.87623 -1.00547,3.75247 -3.38445,5.12597 l 1.3735,2.37897 z"
         style="fill:url(#linearGradient7172);fill-opacity:1;fill-rule:evenodd;stroke:#d2d2d2;stroke-width:0.27469987;stroke-linecap:butt;stroke-linejoin:miter;stroke-miterlimit:4;stroke-opacity:1;stroke-dasharray:none"
         inkscape:connector-curvature="0" />
      <path
         sodipodi:nodetypes="ccccccccccccccc"
         id="path10013"
         d="m 588.48796,737.24094 4.75794,-2.747 -19.91574,-34.49507 6.45017,-5.30999 -61.80747,-107.05367 0.50273,-1.87623 7.13691,-4.1205 -1.3735,-2.37897 -35.68455,20.60249 1.3735,2.37897 7.13691,-4.1205 1.87624,0.50274 61.80746,107.05367 7.82366,-2.93101 19.91574,34.49507 z"
         style="fill:url(#linearGradient7169);fill-opacity:1;fill-rule:evenodd;stroke:#c1eff3;stroke-width:0.38763201px;stroke-linecap:butt;stroke-linejoin:miter;stroke-opacity:1"
         inkscape:connector-curvature="0" />
      <path
         id="path10015"
         d="m 590.76988,735.77039 17.76459,30.76919"
         style="fill:none;stroke:#a4a4a4;stroke-width:0.35529193;stroke-linecap:butt;stroke-linejoin:miter;stroke-miterlimit:4;stroke-opacity:1;stroke-dasharray:none"
         inkscape:connector-curvature="0" />
      <path
         sodipodi:nodetypes="cc"
         id="path18764"
         d="m 521.40661,593.58264 -8.3264,4.80725"
         style="fill:none;stroke:url(#linearGradient7165);stroke-width:0.16481991;stroke-linecap:butt;stroke-linejoin:miter;stroke-miterlimit:4;stroke-opacity:1;stroke-dasharray:none"
         inkscape:connector-curvature="0" />
      <path
         sodipodi:nodetypes="cc"
         id="path19743"
         d="m 523.46686,597.1511 -8.3264,4.80724"
         style="fill:none;stroke:url(#linearGradient7162);stroke-width:0.16481991;stroke-linecap:butt;stroke-linejoin:miter;stroke-miterlimit:4;stroke-opacity:1;stroke-dasharray:none"
         inkscape:connector-curvature="0" />
      <path
         sodipodi:nodetypes="cc"
         id="path19747"
         d="m 529.6476,607.85646 -8.3264,4.80725"
         style="fill:none;stroke:url(#linearGradient7159);stroke-width:0.16481991;stroke-linecap:butt;stroke-linejoin:miter;stroke-miterlimit:4;stroke-opacity:1;stroke-dasharray:none"
         inkscape:connector-curvature="0" />
      <path
         sodipodi:nodetypes="cc"
         id="path19749"
         d="m 527.58735,604.28801 -8.32639,4.80725"
         style="fill:none;stroke:url(#linearGradient7156);stroke-width:0.16481991;stroke-linecap:butt;stroke-linejoin:miter;stroke-miterlimit:4;stroke-opacity:1;stroke-dasharray:none"
         inkscape:connector-curvature="0" />
      <path
         sodipodi:nodetypes="cc"
         id="path19755"
         d="m 531.70785,611.42492 -8.3264,4.80725"
         style="fill:none;stroke:url(#linearGradient7153);stroke-width:0.16481991;stroke-linecap:butt;stroke-linejoin:miter;stroke-miterlimit:4;stroke-opacity:1;stroke-dasharray:none"
         inkscape:connector-curvature="0" />
      <path
         sodipodi:nodetypes="cc"
         id="path19757"
         d="m 525.52711,600.71955 -8.3264,4.80725"
         style="fill:none;stroke:url(#linearGradient7150);stroke-width:0.16481991;stroke-linecap:butt;stroke-linejoin:miter;stroke-miterlimit:4;stroke-opacity:1;stroke-dasharray:none"
         inkscape:connector-curvature="0" />
      <path
         sodipodi:nodetypes="cc"
         id="path19763"
         d="m 533.7681,614.99337 -8.3264,4.80725"
         style="fill:none;stroke:url(#linearGradient7147);stroke-width:0.16481991;stroke-linecap:butt;stroke-linejoin:miter;stroke-miterlimit:4;stroke-opacity:1;stroke-dasharray:none"
         inkscape:connector-curvature="0" />
      <path
         sodipodi:nodetypes="cc"
         id="path19765"
         d="m 535.82835,618.56183 -8.3264,4.80725"
         style="fill:none;stroke:url(#linearGradient7144);stroke-width:0.16481991;stroke-linecap:butt;stroke-linejoin:miter;stroke-miterlimit:4;stroke-opacity:1;stroke-dasharray:none"
         inkscape:connector-curvature="0" />
      <path
         sodipodi:nodetypes="cc"
         id="path19767"
         d="m 542.00909,629.2672 -8.32639,4.80724"
         style="fill:none;stroke:url(#linearGradient7141);stroke-width:0.16481991;stroke-linecap:butt;stroke-linejoin:miter;stroke-miterlimit:4;stroke-opacity:1;stroke-dasharray:none"
         inkscape:connector-curvature="0" />
      <path
         sodipodi:nodetypes="cc"
         id="path19769"
         d="m 539.94885,625.69874 -8.3264,4.80725"
         style="fill:none;stroke:url(#linearGradient7138);stroke-width:0.16481991;stroke-linecap:butt;stroke-linejoin:miter;stroke-miterlimit:4;stroke-opacity:1;stroke-dasharray:none"
         inkscape:connector-curvature="0" />
      <path
         sodipodi:nodetypes="cc"
         id="path19771"
         d="m 544.06934,632.83565 -8.32639,4.80725"
         style="fill:none;stroke:url(#linearGradient7135);stroke-width:0.16481991;stroke-linecap:butt;stroke-linejoin:miter;stroke-miterlimit:4;stroke-opacity:1;stroke-dasharray:none"
         inkscape:connector-curvature="0" />
      <path
         sodipodi:nodetypes="cc"
         id="path19773"
         d="m 537.8886,622.13028 -8.3264,4.80725"
         style="fill:none;stroke:url(#linearGradient7132);stroke-width:0.16481991;stroke-linecap:butt;stroke-linejoin:miter;stroke-miterlimit:4;stroke-opacity:1;stroke-dasharray:none"
         inkscape:connector-curvature="0" />
      <path
         sodipodi:nodetypes="cc"
         id="path19787"
         d="m 546.12959,636.40411 -8.3264,4.80724"
         style="fill:none;stroke:url(#linearGradient7129);stroke-width:0.16481991;stroke-linecap:butt;stroke-linejoin:miter;stroke-miterlimit:4;stroke-opacity:1;stroke-dasharray:none"
         inkscape:connector-curvature="0" />
      <path
         sodipodi:nodetypes="cc"
         id="path19789"
         d="m 548.18984,639.97256 -8.3264,4.80725"
         style="fill:none;stroke:url(#linearGradient7126);stroke-width:0.16481991;stroke-linecap:butt;stroke-linejoin:miter;stroke-miterlimit:4;stroke-opacity:1;stroke-dasharray:none"
         inkscape:connector-curvature="0" />
      <path
         sodipodi:nodetypes="cc"
         id="path19791"
         d="m 554.37059,650.67793 -8.3264,4.80724"
         style="fill:none;stroke:url(#linearGradient7123);stroke-width:0.16481991;stroke-linecap:butt;stroke-linejoin:miter;stroke-miterlimit:4;stroke-opacity:1;stroke-dasharray:none"
         inkscape:connector-curvature="0" />
      <path
         sodipodi:nodetypes="cc"
         id="path19793"
         d="m 552.31034,647.10947 -8.3264,4.80725"
         style="fill:none;stroke:url(#linearGradient7120);stroke-width:0.16481991;stroke-linecap:butt;stroke-linejoin:miter;stroke-miterlimit:4;stroke-opacity:1;stroke-dasharray:none"
         inkscape:connector-curvature="0" />
      <path
         sodipodi:nodetypes="cc"
         id="path19795"
         d="m 556.43083,654.24638 -8.32639,4.80725"
         style="fill:none;stroke:url(#linearGradient7117);stroke-width:0.16481991;stroke-linecap:butt;stroke-linejoin:miter;stroke-miterlimit:4;stroke-opacity:1;stroke-dasharray:none"
         inkscape:connector-curvature="0" />
      <path
         sodipodi:nodetypes="cc"
         id="path19797"
         d="m 550.25009,643.54102 -8.3264,4.80724"
         style="fill:none;stroke:url(#linearGradient7114);stroke-width:0.16481991;stroke-linecap:butt;stroke-linejoin:miter;stroke-miterlimit:4;stroke-opacity:1;stroke-dasharray:none"
         inkscape:connector-curvature="0" />
      <path
         sodipodi:nodetypes="cc"
         id="path19811"
         d="m 558.49109,657.81484 -8.3264,4.80725"
         style="fill:none;stroke:url(#linearGradient7111);stroke-width:0.16481991;stroke-linecap:butt;stroke-linejoin:miter;stroke-miterlimit:4;stroke-opacity:1;stroke-dasharray:none"
         inkscape:connector-curvature="0" />
      <path
         sodipodi:nodetypes="cc"
         id="path19813"
         d="m 560.55134,661.3833 -8.3264,4.80725"
         style="fill:none;stroke:url(#linearGradient7108);stroke-width:0.16481991;stroke-linecap:butt;stroke-linejoin:miter;stroke-miterlimit:4;stroke-opacity:1;stroke-dasharray:none"
         inkscape:connector-curvature="0" />
      <path
         sodipodi:nodetypes="cc"
         id="path19815"
         d="m 566.73208,672.08866 -8.3264,4.80725"
         style="fill:none;stroke:url(#linearGradient7105);stroke-width:0.16481991;stroke-linecap:butt;stroke-linejoin:miter;stroke-miterlimit:4;stroke-opacity:1;stroke-dasharray:none"
         inkscape:connector-curvature="0" />
      <path
         sodipodi:nodetypes="cc"
         id="path19817"
         d="m 564.67183,668.52021 -8.32639,4.80725"
         style="fill:none;stroke:url(#linearGradient7102);stroke-width:0.16481991;stroke-linecap:butt;stroke-linejoin:miter;stroke-miterlimit:4;stroke-opacity:1;stroke-dasharray:none"
         inkscape:connector-curvature="0" />
      <path
         sodipodi:nodetypes="cc"
         id="path19819"
         d="m 568.79233,675.65712 -8.3264,4.80725"
         style="fill:none;stroke:url(#linearGradient7099);stroke-width:0.16481991;stroke-linecap:butt;stroke-linejoin:miter;stroke-miterlimit:4;stroke-opacity:1;stroke-dasharray:none"
         inkscape:connector-curvature="0" />
      <path
         sodipodi:nodetypes="cc"
         id="path19821"
         d="m 562.61158,664.95175 -8.32639,4.80725"
         style="fill:none;stroke:url(#linearGradient7096);stroke-width:0.16481991;stroke-linecap:butt;stroke-linejoin:miter;stroke-miterlimit:4;stroke-opacity:1;stroke-dasharray:none"
         inkscape:connector-curvature="0" />
      <path
         sodipodi:nodetypes="cc"
         id="path19835"
         d="m 570.85258,679.22558 -8.3264,4.80725"
         style="fill:none;stroke:url(#linearGradient7093);stroke-width:0.16481991;stroke-linecap:butt;stroke-linejoin:miter;stroke-miterlimit:4;stroke-opacity:1;stroke-dasharray:none"
         inkscape:connector-curvature="0" />
    </g>
    <text
       xml:space="preserve"
       style="font-size:20px;font-style:normal;font-variant:normal;font-weight:600;font-stretch:normal;text-align:start;line-height:125%;letter-spacing:0px;word-spacing:0px;writing-mode:lr-tb;text-anchor:start;fill:#000000;fill-opacity:1;stroke:none;font-family:FreeSans;-inkscape-font-specification:FreeSans Semi-Bold"
       x="499.21738"
       y="679.71692"
       id="text7206"
       sodipodi:linespacing="125%"><tspan
         sodipodi:role="line"
         id="tspan7208"
         x="499.21738"
         y="679.71692">Seringue</tspan></text>
  </g>
</svg>
